<?xml version="1.0" encoding="utf-8" standalone="no"?>
<!DOCTYPE svg PUBLIC "-//W3C//DTD SVG 1.1//EN"
  "http://www.w3.org/Graphics/SVG/1.1/DTD/svg11.dtd">
<!-- Created with matplotlib (http://matplotlib.org/) -->
<svg height="504pt" version="1.1" viewBox="0 0 1152 504" width="1152pt" xmlns="http://www.w3.org/2000/svg" xmlns:xlink="http://www.w3.org/1999/xlink">
 <defs>
  <style type="text/css">
*{stroke-linecap:butt;stroke-linejoin:round;}
  </style>
 </defs>
 <g id="figure_1">
  <g id="patch_1">
   <path d="M 0 504 
L 1152 504 
L 1152 0 
L 0 0 
z
" style="fill:#ffffff;"/>
  </g>
  <g id="axes_1">
   <g id="patch_2">
    <path d="M 53.925 463.2 
L 1135.8875 463.2 
L 1135.8875 26.8 
L 53.925 26.8 
z
" style="fill:#ffffff;"/>
   </g>
   <g id="matplotlib.axis_1">
    <g id="xtick_1">
     <g id="line2d_1">
      <path clip-path="url(#paed2a79323)" d="M 53.925 463.2 
L 53.925 26.8 
" style="fill:none;stroke:#eeeeee;stroke-linecap:square;stroke-width:0.8;"/>
     </g>
     <g id="line2d_2">
      <defs>
       <path d="M 0 0 
L 0 3.5 
" id="m7fe86dcb8f" style="stroke:#000000;stroke-width:0.8;"/>
      </defs>
      <g>
       <use style="stroke:#000000;stroke-width:0.8;" x="53.925" xlink:href="#m7fe86dcb8f" y="463.2"/>
      </g>
     </g>
     <g id="text_1">
      <!-- 01 -->
      <defs>
       <path d="M 31.78125 66.40625 
Q 24.171875 66.40625 20.328125 58.90625 
Q 16.5 51.421875 16.5 36.375 
Q 16.5 21.390625 20.328125 13.890625 
Q 24.171875 6.390625 31.78125 6.390625 
Q 39.453125 6.390625 43.28125 13.890625 
Q 47.125 21.390625 47.125 36.375 
Q 47.125 51.421875 43.28125 58.90625 
Q 39.453125 66.40625 31.78125 66.40625 
z
M 31.78125 74.21875 
Q 44.046875 74.21875 50.515625 64.515625 
Q 56.984375 54.828125 56.984375 36.375 
Q 56.984375 17.96875 50.515625 8.265625 
Q 44.046875 -1.421875 31.78125 -1.421875 
Q 19.53125 -1.421875 13.0625 8.265625 
Q 6.59375 17.96875 6.59375 36.375 
Q 6.59375 54.828125 13.0625 64.515625 
Q 19.53125 74.21875 31.78125 74.21875 
z
" id="DejaVuSans-30"/>
       <path d="M 12.40625 8.296875 
L 28.515625 8.296875 
L 28.515625 63.921875 
L 10.984375 60.40625 
L 10.984375 69.390625 
L 28.421875 72.90625 
L 38.28125 72.90625 
L 38.28125 8.296875 
L 54.390625 8.296875 
L 54.390625 0 
L 12.40625 0 
z
" id="DejaVuSans-31"/>
      </defs>
      <g transform="translate(48.625038 476.529498)scale(0.0833 -0.0833)">
       <use xlink:href="#DejaVuSans-30"/>
       <use x="63.623047" xlink:href="#DejaVuSans-31"/>
      </g>
     </g>
    </g>
    <g id="xtick_2">
     <g id="line2d_3">
      <path clip-path="url(#paed2a79323)" d="M 67.449531 463.2 
L 67.449531 26.8 
" style="fill:none;stroke:#eeeeee;stroke-linecap:square;stroke-width:0.8;"/>
     </g>
     <g id="line2d_4">
      <g>
       <use style="stroke:#000000;stroke-width:0.8;" x="67.449531" xlink:href="#m7fe86dcb8f" y="463.2"/>
      </g>
     </g>
     <g id="text_2">
      <!-- 02 -->
      <defs>
       <path d="M 19.1875 8.296875 
L 53.609375 8.296875 
L 53.609375 0 
L 7.328125 0 
L 7.328125 8.296875 
Q 12.9375 14.109375 22.625 23.890625 
Q 32.328125 33.6875 34.8125 36.53125 
Q 39.546875 41.84375 41.421875 45.53125 
Q 43.3125 49.21875 43.3125 52.78125 
Q 43.3125 58.59375 39.234375 62.25 
Q 35.15625 65.921875 28.609375 65.921875 
Q 23.96875 65.921875 18.8125 64.3125 
Q 13.671875 62.703125 7.8125 59.421875 
L 7.8125 69.390625 
Q 13.765625 71.78125 18.9375 73 
Q 24.125 74.21875 28.421875 74.21875 
Q 39.75 74.21875 46.484375 68.546875 
Q 53.21875 62.890625 53.21875 53.421875 
Q 53.21875 48.921875 51.53125 44.890625 
Q 49.859375 40.875 45.40625 35.40625 
Q 44.1875 33.984375 37.640625 27.21875 
Q 31.109375 20.453125 19.1875 8.296875 
z
" id="DejaVuSans-32"/>
      </defs>
      <g transform="translate(62.149569 476.529498)scale(0.0833 -0.0833)">
       <use xlink:href="#DejaVuSans-30"/>
       <use x="63.623047" xlink:href="#DejaVuSans-32"/>
      </g>
     </g>
    </g>
    <g id="xtick_3">
     <g id="line2d_5">
      <path clip-path="url(#paed2a79323)" d="M 80.974063 463.2 
L 80.974063 26.8 
" style="fill:none;stroke:#eeeeee;stroke-linecap:square;stroke-width:0.8;"/>
     </g>
     <g id="line2d_6">
      <g>
       <use style="stroke:#000000;stroke-width:0.8;" x="80.974063" xlink:href="#m7fe86dcb8f" y="463.2"/>
      </g>
     </g>
     <g id="text_3">
      <!-- 03 -->
      <defs>
       <path d="M 40.578125 39.3125 
Q 47.65625 37.796875 51.625 33 
Q 55.609375 28.21875 55.609375 21.1875 
Q 55.609375 10.40625 48.1875 4.484375 
Q 40.765625 -1.421875 27.09375 -1.421875 
Q 22.515625 -1.421875 17.65625 -0.515625 
Q 12.796875 0.390625 7.625 2.203125 
L 7.625 11.71875 
Q 11.71875 9.328125 16.59375 8.109375 
Q 21.484375 6.890625 26.8125 6.890625 
Q 36.078125 6.890625 40.9375 10.546875 
Q 45.796875 14.203125 45.796875 21.1875 
Q 45.796875 27.640625 41.28125 31.265625 
Q 36.765625 34.90625 28.71875 34.90625 
L 20.21875 34.90625 
L 20.21875 43.015625 
L 29.109375 43.015625 
Q 36.375 43.015625 40.234375 45.921875 
Q 44.09375 48.828125 44.09375 54.296875 
Q 44.09375 59.90625 40.109375 62.90625 
Q 36.140625 65.921875 28.71875 65.921875 
Q 24.65625 65.921875 20.015625 65.03125 
Q 15.375 64.15625 9.8125 62.3125 
L 9.8125 71.09375 
Q 15.4375 72.65625 20.34375 73.4375 
Q 25.25 74.21875 29.59375 74.21875 
Q 40.828125 74.21875 47.359375 69.109375 
Q 53.90625 64.015625 53.90625 55.328125 
Q 53.90625 49.265625 50.4375 45.09375 
Q 46.96875 40.921875 40.578125 39.3125 
z
" id="DejaVuSans-33"/>
      </defs>
      <g transform="translate(75.6741 476.529498)scale(0.0833 -0.0833)">
       <use xlink:href="#DejaVuSans-30"/>
       <use x="63.623047" xlink:href="#DejaVuSans-33"/>
      </g>
     </g>
    </g>
    <g id="xtick_4">
     <g id="line2d_7">
      <path clip-path="url(#paed2a79323)" d="M 94.498594 463.2 
L 94.498594 26.8 
" style="fill:none;stroke:#eeeeee;stroke-linecap:square;stroke-width:0.8;"/>
     </g>
     <g id="line2d_8">
      <g>
       <use style="stroke:#000000;stroke-width:0.8;" x="94.498594" xlink:href="#m7fe86dcb8f" y="463.2"/>
      </g>
     </g>
     <g id="text_4">
      <!-- 04 -->
      <defs>
       <path d="M 37.796875 64.3125 
L 12.890625 25.390625 
L 37.796875 25.390625 
z
M 35.203125 72.90625 
L 47.609375 72.90625 
L 47.609375 25.390625 
L 58.015625 25.390625 
L 58.015625 17.1875 
L 47.609375 17.1875 
L 47.609375 0 
L 37.796875 0 
L 37.796875 17.1875 
L 4.890625 17.1875 
L 4.890625 26.703125 
z
" id="DejaVuSans-34"/>
      </defs>
      <g transform="translate(89.198631 476.529498)scale(0.0833 -0.0833)">
       <use xlink:href="#DejaVuSans-30"/>
       <use x="63.623047" xlink:href="#DejaVuSans-34"/>
      </g>
     </g>
    </g>
    <g id="xtick_5">
     <g id="line2d_9">
      <path clip-path="url(#paed2a79323)" d="M 108.023125 463.2 
L 108.023125 26.8 
" style="fill:none;stroke:#eeeeee;stroke-linecap:square;stroke-width:0.8;"/>
     </g>
     <g id="line2d_10">
      <g>
       <use style="stroke:#000000;stroke-width:0.8;" x="108.023125" xlink:href="#m7fe86dcb8f" y="463.2"/>
      </g>
     </g>
     <g id="text_5">
      <!-- 05 -->
      <defs>
       <path d="M 10.796875 72.90625 
L 49.515625 72.90625 
L 49.515625 64.59375 
L 19.828125 64.59375 
L 19.828125 46.734375 
Q 21.96875 47.46875 24.109375 47.828125 
Q 26.265625 48.1875 28.421875 48.1875 
Q 40.625 48.1875 47.75 41.5 
Q 54.890625 34.8125 54.890625 23.390625 
Q 54.890625 11.625 47.5625 5.09375 
Q 40.234375 -1.421875 26.90625 -1.421875 
Q 22.3125 -1.421875 17.546875 -0.640625 
Q 12.796875 0.140625 7.71875 1.703125 
L 7.71875 11.625 
Q 12.109375 9.234375 16.796875 8.0625 
Q 21.484375 6.890625 26.703125 6.890625 
Q 35.15625 6.890625 40.078125 11.328125 
Q 45.015625 15.765625 45.015625 23.390625 
Q 45.015625 31 40.078125 35.4375 
Q 35.15625 39.890625 26.703125 39.890625 
Q 22.75 39.890625 18.8125 39.015625 
Q 14.890625 38.140625 10.796875 36.28125 
z
" id="DejaVuSans-35"/>
      </defs>
      <g transform="translate(102.723163 476.529498)scale(0.0833 -0.0833)">
       <use xlink:href="#DejaVuSans-30"/>
       <use x="63.623047" xlink:href="#DejaVuSans-35"/>
      </g>
     </g>
    </g>
    <g id="xtick_6">
     <g id="line2d_11">
      <path clip-path="url(#paed2a79323)" d="M 121.547656 463.2 
L 121.547656 26.8 
" style="fill:none;stroke:#eeeeee;stroke-linecap:square;stroke-width:0.8;"/>
     </g>
     <g id="line2d_12">
      <g>
       <use style="stroke:#000000;stroke-width:0.8;" x="121.547656" xlink:href="#m7fe86dcb8f" y="463.2"/>
      </g>
     </g>
     <g id="text_6">
      <!-- 06 -->
      <defs>
       <path d="M 33.015625 40.375 
Q 26.375 40.375 22.484375 35.828125 
Q 18.609375 31.296875 18.609375 23.390625 
Q 18.609375 15.53125 22.484375 10.953125 
Q 26.375 6.390625 33.015625 6.390625 
Q 39.65625 6.390625 43.53125 10.953125 
Q 47.40625 15.53125 47.40625 23.390625 
Q 47.40625 31.296875 43.53125 35.828125 
Q 39.65625 40.375 33.015625 40.375 
z
M 52.59375 71.296875 
L 52.59375 62.3125 
Q 48.875 64.0625 45.09375 64.984375 
Q 41.3125 65.921875 37.59375 65.921875 
Q 27.828125 65.921875 22.671875 59.328125 
Q 17.53125 52.734375 16.796875 39.40625 
Q 19.671875 43.65625 24.015625 45.921875 
Q 28.375 48.1875 33.59375 48.1875 
Q 44.578125 48.1875 50.953125 41.515625 
Q 57.328125 34.859375 57.328125 23.390625 
Q 57.328125 12.15625 50.6875 5.359375 
Q 44.046875 -1.421875 33.015625 -1.421875 
Q 20.359375 -1.421875 13.671875 8.265625 
Q 6.984375 17.96875 6.984375 36.375 
Q 6.984375 53.65625 15.1875 63.9375 
Q 23.390625 74.21875 37.203125 74.21875 
Q 40.921875 74.21875 44.703125 73.484375 
Q 48.484375 72.75 52.59375 71.296875 
z
" id="DejaVuSans-36"/>
      </defs>
      <g transform="translate(116.247694 476.529498)scale(0.0833 -0.0833)">
       <use xlink:href="#DejaVuSans-30"/>
       <use x="63.623047" xlink:href="#DejaVuSans-36"/>
      </g>
     </g>
    </g>
    <g id="xtick_7">
     <g id="line2d_13">
      <path clip-path="url(#paed2a79323)" d="M 135.072188 463.2 
L 135.072188 26.8 
" style="fill:none;stroke:#eeeeee;stroke-linecap:square;stroke-width:0.8;"/>
     </g>
     <g id="line2d_14">
      <g>
       <use style="stroke:#000000;stroke-width:0.8;" x="135.072188" xlink:href="#m7fe86dcb8f" y="463.2"/>
      </g>
     </g>
     <g id="text_7">
      <!-- 07 -->
      <defs>
       <path d="M 8.203125 72.90625 
L 55.078125 72.90625 
L 55.078125 68.703125 
L 28.609375 0 
L 18.3125 0 
L 43.21875 64.59375 
L 8.203125 64.59375 
z
" id="DejaVuSans-37"/>
      </defs>
      <g transform="translate(129.772225 476.529498)scale(0.0833 -0.0833)">
       <use xlink:href="#DejaVuSans-30"/>
       <use x="63.623047" xlink:href="#DejaVuSans-37"/>
      </g>
     </g>
    </g>
    <g id="xtick_8">
     <g id="line2d_15">
      <path clip-path="url(#paed2a79323)" d="M 148.596719 463.2 
L 148.596719 26.8 
" style="fill:none;stroke:#eeeeee;stroke-linecap:square;stroke-width:0.8;"/>
     </g>
     <g id="line2d_16">
      <g>
       <use style="stroke:#000000;stroke-width:0.8;" x="148.596719" xlink:href="#m7fe86dcb8f" y="463.2"/>
      </g>
     </g>
     <g id="text_8">
      <!-- 08 -->
      <defs>
       <path d="M 31.78125 34.625 
Q 24.75 34.625 20.71875 30.859375 
Q 16.703125 27.09375 16.703125 20.515625 
Q 16.703125 13.921875 20.71875 10.15625 
Q 24.75 6.390625 31.78125 6.390625 
Q 38.8125 6.390625 42.859375 10.171875 
Q 46.921875 13.96875 46.921875 20.515625 
Q 46.921875 27.09375 42.890625 30.859375 
Q 38.875 34.625 31.78125 34.625 
z
M 21.921875 38.8125 
Q 15.578125 40.375 12.03125 44.71875 
Q 8.5 49.078125 8.5 55.328125 
Q 8.5 64.0625 14.71875 69.140625 
Q 20.953125 74.21875 31.78125 74.21875 
Q 42.671875 74.21875 48.875 69.140625 
Q 55.078125 64.0625 55.078125 55.328125 
Q 55.078125 49.078125 51.53125 44.71875 
Q 48 40.375 41.703125 38.8125 
Q 48.828125 37.15625 52.796875 32.3125 
Q 56.78125 27.484375 56.78125 20.515625 
Q 56.78125 9.90625 50.3125 4.234375 
Q 43.84375 -1.421875 31.78125 -1.421875 
Q 19.734375 -1.421875 13.25 4.234375 
Q 6.78125 9.90625 6.78125 20.515625 
Q 6.78125 27.484375 10.78125 32.3125 
Q 14.796875 37.15625 21.921875 38.8125 
z
M 18.3125 54.390625 
Q 18.3125 48.734375 21.84375 45.5625 
Q 25.390625 42.390625 31.78125 42.390625 
Q 38.140625 42.390625 41.71875 45.5625 
Q 45.3125 48.734375 45.3125 54.390625 
Q 45.3125 60.0625 41.71875 63.234375 
Q 38.140625 66.40625 31.78125 66.40625 
Q 25.390625 66.40625 21.84375 63.234375 
Q 18.3125 60.0625 18.3125 54.390625 
z
" id="DejaVuSans-38"/>
      </defs>
      <g transform="translate(143.296756 476.529498)scale(0.0833 -0.0833)">
       <use xlink:href="#DejaVuSans-30"/>
       <use x="63.623047" xlink:href="#DejaVuSans-38"/>
      </g>
     </g>
    </g>
    <g id="xtick_9">
     <g id="line2d_17">
      <path clip-path="url(#paed2a79323)" d="M 162.12125 463.2 
L 162.12125 26.8 
" style="fill:none;stroke:#eeeeee;stroke-linecap:square;stroke-width:0.8;"/>
     </g>
     <g id="line2d_18">
      <g>
       <use style="stroke:#000000;stroke-width:0.8;" x="162.12125" xlink:href="#m7fe86dcb8f" y="463.2"/>
      </g>
     </g>
     <g id="text_9">
      <!-- 09 -->
      <defs>
       <path d="M 10.984375 1.515625 
L 10.984375 10.5 
Q 14.703125 8.734375 18.5 7.8125 
Q 22.3125 6.890625 25.984375 6.890625 
Q 35.75 6.890625 40.890625 13.453125 
Q 46.046875 20.015625 46.78125 33.40625 
Q 43.953125 29.203125 39.59375 26.953125 
Q 35.25 24.703125 29.984375 24.703125 
Q 19.046875 24.703125 12.671875 31.3125 
Q 6.296875 37.9375 6.296875 49.421875 
Q 6.296875 60.640625 12.9375 67.421875 
Q 19.578125 74.21875 30.609375 74.21875 
Q 43.265625 74.21875 49.921875 64.515625 
Q 56.59375 54.828125 56.59375 36.375 
Q 56.59375 19.140625 48.40625 8.859375 
Q 40.234375 -1.421875 26.421875 -1.421875 
Q 22.703125 -1.421875 18.890625 -0.6875 
Q 15.09375 0.046875 10.984375 1.515625 
z
M 30.609375 32.421875 
Q 37.25 32.421875 41.125 36.953125 
Q 45.015625 41.5 45.015625 49.421875 
Q 45.015625 57.28125 41.125 61.84375 
Q 37.25 66.40625 30.609375 66.40625 
Q 23.96875 66.40625 20.09375 61.84375 
Q 16.21875 57.28125 16.21875 49.421875 
Q 16.21875 41.5 20.09375 36.953125 
Q 23.96875 32.421875 30.609375 32.421875 
z
" id="DejaVuSans-39"/>
      </defs>
      <g transform="translate(156.821288 476.529498)scale(0.0833 -0.0833)">
       <use xlink:href="#DejaVuSans-30"/>
       <use x="63.623047" xlink:href="#DejaVuSans-39"/>
      </g>
     </g>
    </g>
    <g id="xtick_10">
     <g id="line2d_19">
      <path clip-path="url(#paed2a79323)" d="M 175.645781 463.2 
L 175.645781 26.8 
" style="fill:none;stroke:#eeeeee;stroke-linecap:square;stroke-width:0.8;"/>
     </g>
     <g id="line2d_20">
      <g>
       <use style="stroke:#000000;stroke-width:0.8;" x="175.645781" xlink:href="#m7fe86dcb8f" y="463.2"/>
      </g>
     </g>
     <g id="text_10">
      <!-- 10 -->
      <g transform="translate(170.345819 476.529498)scale(0.0833 -0.0833)">
       <use xlink:href="#DejaVuSans-31"/>
       <use x="63.623047" xlink:href="#DejaVuSans-30"/>
      </g>
     </g>
    </g>
    <g id="xtick_11">
     <g id="line2d_21">
      <path clip-path="url(#paed2a79323)" d="M 189.170313 463.2 
L 189.170313 26.8 
" style="fill:none;stroke:#eeeeee;stroke-linecap:square;stroke-width:0.8;"/>
     </g>
     <g id="line2d_22">
      <g>
       <use style="stroke:#000000;stroke-width:0.8;" x="189.170313" xlink:href="#m7fe86dcb8f" y="463.2"/>
      </g>
     </g>
     <g id="text_11">
      <!-- 11 -->
      <g transform="translate(183.87035 476.529498)scale(0.0833 -0.0833)">
       <use xlink:href="#DejaVuSans-31"/>
       <use x="63.623047" xlink:href="#DejaVuSans-31"/>
      </g>
     </g>
    </g>
    <g id="xtick_12">
     <g id="line2d_23">
      <path clip-path="url(#paed2a79323)" d="M 202.694844 463.2 
L 202.694844 26.8 
" style="fill:none;stroke:#eeeeee;stroke-linecap:square;stroke-width:0.8;"/>
     </g>
     <g id="line2d_24">
      <g>
       <use style="stroke:#000000;stroke-width:0.8;" x="202.694844" xlink:href="#m7fe86dcb8f" y="463.2"/>
      </g>
     </g>
     <g id="text_12">
      <!-- 12 -->
      <g transform="translate(197.394881 476.529498)scale(0.0833 -0.0833)">
       <use xlink:href="#DejaVuSans-31"/>
       <use x="63.623047" xlink:href="#DejaVuSans-32"/>
      </g>
     </g>
    </g>
    <g id="xtick_13">
     <g id="line2d_25">
      <path clip-path="url(#paed2a79323)" d="M 216.219375 463.2 
L 216.219375 26.8 
" style="fill:none;stroke:#eeeeee;stroke-linecap:square;stroke-width:0.8;"/>
     </g>
     <g id="line2d_26">
      <g>
       <use style="stroke:#000000;stroke-width:0.8;" x="216.219375" xlink:href="#m7fe86dcb8f" y="463.2"/>
      </g>
     </g>
     <g id="text_13">
      <!-- 13 -->
      <g transform="translate(210.919413 476.529498)scale(0.0833 -0.0833)">
       <use xlink:href="#DejaVuSans-31"/>
       <use x="63.623047" xlink:href="#DejaVuSans-33"/>
      </g>
     </g>
    </g>
    <g id="xtick_14">
     <g id="line2d_27">
      <path clip-path="url(#paed2a79323)" d="M 229.743906 463.2 
L 229.743906 26.8 
" style="fill:none;stroke:#eeeeee;stroke-linecap:square;stroke-width:0.8;"/>
     </g>
     <g id="line2d_28">
      <g>
       <use style="stroke:#000000;stroke-width:0.8;" x="229.743906" xlink:href="#m7fe86dcb8f" y="463.2"/>
      </g>
     </g>
     <g id="text_14">
      <!-- 14 -->
      <g transform="translate(224.443944 476.529498)scale(0.0833 -0.0833)">
       <use xlink:href="#DejaVuSans-31"/>
       <use x="63.623047" xlink:href="#DejaVuSans-34"/>
      </g>
     </g>
    </g>
    <g id="xtick_15">
     <g id="line2d_29">
      <path clip-path="url(#paed2a79323)" d="M 243.268438 463.2 
L 243.268438 26.8 
" style="fill:none;stroke:#eeeeee;stroke-linecap:square;stroke-width:0.8;"/>
     </g>
     <g id="line2d_30">
      <g>
       <use style="stroke:#000000;stroke-width:0.8;" x="243.268438" xlink:href="#m7fe86dcb8f" y="463.2"/>
      </g>
     </g>
     <g id="text_15">
      <!-- 15 -->
      <g transform="translate(237.968475 476.529498)scale(0.0833 -0.0833)">
       <use xlink:href="#DejaVuSans-31"/>
       <use x="63.623047" xlink:href="#DejaVuSans-35"/>
      </g>
     </g>
    </g>
    <g id="xtick_16">
     <g id="line2d_31">
      <path clip-path="url(#paed2a79323)" d="M 256.792969 463.2 
L 256.792969 26.8 
" style="fill:none;stroke:#eeeeee;stroke-linecap:square;stroke-width:0.8;"/>
     </g>
     <g id="line2d_32">
      <g>
       <use style="stroke:#000000;stroke-width:0.8;" x="256.792969" xlink:href="#m7fe86dcb8f" y="463.2"/>
      </g>
     </g>
     <g id="text_16">
      <!-- 16 -->
      <g transform="translate(251.493006 476.529498)scale(0.0833 -0.0833)">
       <use xlink:href="#DejaVuSans-31"/>
       <use x="63.623047" xlink:href="#DejaVuSans-36"/>
      </g>
     </g>
    </g>
    <g id="xtick_17">
     <g id="line2d_33">
      <path clip-path="url(#paed2a79323)" d="M 270.3175 463.2 
L 270.3175 26.8 
" style="fill:none;stroke:#eeeeee;stroke-linecap:square;stroke-width:0.8;"/>
     </g>
     <g id="line2d_34">
      <g>
       <use style="stroke:#000000;stroke-width:0.8;" x="270.3175" xlink:href="#m7fe86dcb8f" y="463.2"/>
      </g>
     </g>
     <g id="text_17">
      <!-- 17 -->
      <g transform="translate(265.017538 476.529498)scale(0.0833 -0.0833)">
       <use xlink:href="#DejaVuSans-31"/>
       <use x="63.623047" xlink:href="#DejaVuSans-37"/>
      </g>
     </g>
    </g>
    <g id="xtick_18">
     <g id="line2d_35">
      <path clip-path="url(#paed2a79323)" d="M 283.842031 463.2 
L 283.842031 26.8 
" style="fill:none;stroke:#eeeeee;stroke-linecap:square;stroke-width:0.8;"/>
     </g>
     <g id="line2d_36">
      <g>
       <use style="stroke:#000000;stroke-width:0.8;" x="283.842031" xlink:href="#m7fe86dcb8f" y="463.2"/>
      </g>
     </g>
     <g id="text_18">
      <!-- 18 -->
      <g transform="translate(278.542069 476.529498)scale(0.0833 -0.0833)">
       <use xlink:href="#DejaVuSans-31"/>
       <use x="63.623047" xlink:href="#DejaVuSans-38"/>
      </g>
     </g>
    </g>
    <g id="xtick_19">
     <g id="line2d_37">
      <path clip-path="url(#paed2a79323)" d="M 297.366563 463.2 
L 297.366563 26.8 
" style="fill:none;stroke:#eeeeee;stroke-linecap:square;stroke-width:0.8;"/>
     </g>
     <g id="line2d_38">
      <g>
       <use style="stroke:#000000;stroke-width:0.8;" x="297.366563" xlink:href="#m7fe86dcb8f" y="463.2"/>
      </g>
     </g>
     <g id="text_19">
      <!-- 19 -->
      <g transform="translate(292.0666 476.529498)scale(0.0833 -0.0833)">
       <use xlink:href="#DejaVuSans-31"/>
       <use x="63.623047" xlink:href="#DejaVuSans-39"/>
      </g>
     </g>
    </g>
    <g id="xtick_20">
     <g id="line2d_39">
      <path clip-path="url(#paed2a79323)" d="M 310.891094 463.2 
L 310.891094 26.8 
" style="fill:none;stroke:#eeeeee;stroke-linecap:square;stroke-width:0.8;"/>
     </g>
     <g id="line2d_40">
      <g>
       <use style="stroke:#000000;stroke-width:0.8;" x="310.891094" xlink:href="#m7fe86dcb8f" y="463.2"/>
      </g>
     </g>
     <g id="text_20">
      <!-- 20 -->
      <g transform="translate(305.591131 476.529498)scale(0.0833 -0.0833)">
       <use xlink:href="#DejaVuSans-32"/>
       <use x="63.623047" xlink:href="#DejaVuSans-30"/>
      </g>
     </g>
    </g>
    <g id="xtick_21">
     <g id="line2d_41">
      <path clip-path="url(#paed2a79323)" d="M 324.415625 463.2 
L 324.415625 26.8 
" style="fill:none;stroke:#eeeeee;stroke-linecap:square;stroke-width:0.8;"/>
     </g>
     <g id="line2d_42">
      <g>
       <use style="stroke:#000000;stroke-width:0.8;" x="324.415625" xlink:href="#m7fe86dcb8f" y="463.2"/>
      </g>
     </g>
     <g id="text_21">
      <!-- 21 -->
      <g transform="translate(319.115663 476.529498)scale(0.0833 -0.0833)">
       <use xlink:href="#DejaVuSans-32"/>
       <use x="63.623047" xlink:href="#DejaVuSans-31"/>
      </g>
     </g>
    </g>
    <g id="xtick_22">
     <g id="line2d_43">
      <path clip-path="url(#paed2a79323)" d="M 337.940156 463.2 
L 337.940156 26.8 
" style="fill:none;stroke:#eeeeee;stroke-linecap:square;stroke-width:0.8;"/>
     </g>
     <g id="line2d_44">
      <g>
       <use style="stroke:#000000;stroke-width:0.8;" x="337.940156" xlink:href="#m7fe86dcb8f" y="463.2"/>
      </g>
     </g>
     <g id="text_22">
      <!-- 22 -->
      <g transform="translate(332.640194 476.529498)scale(0.0833 -0.0833)">
       <use xlink:href="#DejaVuSans-32"/>
       <use x="63.623047" xlink:href="#DejaVuSans-32"/>
      </g>
     </g>
    </g>
    <g id="xtick_23">
     <g id="line2d_45">
      <path clip-path="url(#paed2a79323)" d="M 351.464688 463.2 
L 351.464688 26.8 
" style="fill:none;stroke:#eeeeee;stroke-linecap:square;stroke-width:0.8;"/>
     </g>
     <g id="line2d_46">
      <g>
       <use style="stroke:#000000;stroke-width:0.8;" x="351.464688" xlink:href="#m7fe86dcb8f" y="463.2"/>
      </g>
     </g>
     <g id="text_23">
      <!-- 23 -->
      <g transform="translate(346.164725 476.529498)scale(0.0833 -0.0833)">
       <use xlink:href="#DejaVuSans-32"/>
       <use x="63.623047" xlink:href="#DejaVuSans-33"/>
      </g>
     </g>
    </g>
    <g id="xtick_24">
     <g id="line2d_47">
      <path clip-path="url(#paed2a79323)" d="M 364.989219 463.2 
L 364.989219 26.8 
" style="fill:none;stroke:#eeeeee;stroke-linecap:square;stroke-width:0.8;"/>
     </g>
     <g id="line2d_48">
      <g>
       <use style="stroke:#000000;stroke-width:0.8;" x="364.989219" xlink:href="#m7fe86dcb8f" y="463.2"/>
      </g>
     </g>
     <g id="text_24">
      <!-- 24 -->
      <g transform="translate(359.689256 476.529498)scale(0.0833 -0.0833)">
       <use xlink:href="#DejaVuSans-32"/>
       <use x="63.623047" xlink:href="#DejaVuSans-34"/>
      </g>
     </g>
    </g>
    <g id="xtick_25">
     <g id="line2d_49">
      <path clip-path="url(#paed2a79323)" d="M 378.51375 463.2 
L 378.51375 26.8 
" style="fill:none;stroke:#eeeeee;stroke-linecap:square;stroke-width:0.8;"/>
     </g>
     <g id="line2d_50">
      <g>
       <use style="stroke:#000000;stroke-width:0.8;" x="378.51375" xlink:href="#m7fe86dcb8f" y="463.2"/>
      </g>
     </g>
     <g id="text_25">
      <!-- 25 -->
      <g transform="translate(373.213788 476.529498)scale(0.0833 -0.0833)">
       <use xlink:href="#DejaVuSans-32"/>
       <use x="63.623047" xlink:href="#DejaVuSans-35"/>
      </g>
     </g>
    </g>
    <g id="xtick_26">
     <g id="line2d_51">
      <path clip-path="url(#paed2a79323)" d="M 392.038281 463.2 
L 392.038281 26.8 
" style="fill:none;stroke:#eeeeee;stroke-linecap:square;stroke-width:0.8;"/>
     </g>
     <g id="line2d_52">
      <g>
       <use style="stroke:#000000;stroke-width:0.8;" x="392.038281" xlink:href="#m7fe86dcb8f" y="463.2"/>
      </g>
     </g>
     <g id="text_26">
      <!-- 26 -->
      <g transform="translate(386.738319 476.529498)scale(0.0833 -0.0833)">
       <use xlink:href="#DejaVuSans-32"/>
       <use x="63.623047" xlink:href="#DejaVuSans-36"/>
      </g>
     </g>
    </g>
    <g id="xtick_27">
     <g id="line2d_53">
      <path clip-path="url(#paed2a79323)" d="M 405.562813 463.2 
L 405.562813 26.8 
" style="fill:none;stroke:#eeeeee;stroke-linecap:square;stroke-width:0.8;"/>
     </g>
     <g id="line2d_54">
      <g>
       <use style="stroke:#000000;stroke-width:0.8;" x="405.562813" xlink:href="#m7fe86dcb8f" y="463.2"/>
      </g>
     </g>
     <g id="text_27">
      <!-- 27 -->
      <g transform="translate(400.26285 476.529498)scale(0.0833 -0.0833)">
       <use xlink:href="#DejaVuSans-32"/>
       <use x="63.623047" xlink:href="#DejaVuSans-37"/>
      </g>
     </g>
    </g>
    <g id="xtick_28">
     <g id="line2d_55">
      <path clip-path="url(#paed2a79323)" d="M 419.087344 463.2 
L 419.087344 26.8 
" style="fill:none;stroke:#eeeeee;stroke-linecap:square;stroke-width:0.8;"/>
     </g>
     <g id="line2d_56">
      <g>
       <use style="stroke:#000000;stroke-width:0.8;" x="419.087344" xlink:href="#m7fe86dcb8f" y="463.2"/>
      </g>
     </g>
     <g id="text_28">
      <!-- 28 -->
      <g transform="translate(413.787381 476.529498)scale(0.0833 -0.0833)">
       <use xlink:href="#DejaVuSans-32"/>
       <use x="63.623047" xlink:href="#DejaVuSans-38"/>
      </g>
     </g>
    </g>
    <g id="xtick_29">
     <g id="line2d_57">
      <path clip-path="url(#paed2a79323)" d="M 432.611875 463.2 
L 432.611875 26.8 
" style="fill:none;stroke:#eeeeee;stroke-linecap:square;stroke-width:0.8;"/>
     </g>
     <g id="line2d_58">
      <g>
       <use style="stroke:#000000;stroke-width:0.8;" x="432.611875" xlink:href="#m7fe86dcb8f" y="463.2"/>
      </g>
     </g>
     <g id="text_29">
      <!-- 29 -->
      <g transform="translate(427.311913 476.529498)scale(0.0833 -0.0833)">
       <use xlink:href="#DejaVuSans-32"/>
       <use x="63.623047" xlink:href="#DejaVuSans-39"/>
      </g>
     </g>
    </g>
    <g id="xtick_30">
     <g id="line2d_59">
      <path clip-path="url(#paed2a79323)" d="M 446.136406 463.2 
L 446.136406 26.8 
" style="fill:none;stroke:#eeeeee;stroke-linecap:square;stroke-width:0.8;"/>
     </g>
     <g id="line2d_60">
      <g>
       <use style="stroke:#000000;stroke-width:0.8;" x="446.136406" xlink:href="#m7fe86dcb8f" y="463.2"/>
      </g>
     </g>
     <g id="text_30">
      <!-- 30 -->
      <g transform="translate(440.836444 476.529498)scale(0.0833 -0.0833)">
       <use xlink:href="#DejaVuSans-33"/>
       <use x="63.623047" xlink:href="#DejaVuSans-30"/>
      </g>
     </g>
    </g>
    <g id="xtick_31">
     <g id="line2d_61">
      <path clip-path="url(#paed2a79323)" d="M 459.660938 463.2 
L 459.660938 26.8 
" style="fill:none;stroke:#eeeeee;stroke-linecap:square;stroke-width:0.8;"/>
     </g>
     <g id="line2d_62">
      <g>
       <use style="stroke:#000000;stroke-width:0.8;" x="459.660938" xlink:href="#m7fe86dcb8f" y="463.2"/>
      </g>
     </g>
     <g id="text_31">
      <!-- 31 -->
      <g transform="translate(454.360975 476.529498)scale(0.0833 -0.0833)">
       <use xlink:href="#DejaVuSans-33"/>
       <use x="63.623047" xlink:href="#DejaVuSans-31"/>
      </g>
     </g>
    </g>
    <g id="xtick_32">
     <g id="line2d_63">
      <path clip-path="url(#paed2a79323)" d="M 473.185469 463.2 
L 473.185469 26.8 
" style="fill:none;stroke:#eeeeee;stroke-linecap:square;stroke-width:0.8;"/>
     </g>
     <g id="line2d_64">
      <g>
       <use style="stroke:#000000;stroke-width:0.8;" x="473.185469" xlink:href="#m7fe86dcb8f" y="463.2"/>
      </g>
     </g>
     <g id="text_32">
      <!-- 32 -->
      <g transform="translate(467.885506 476.529498)scale(0.0833 -0.0833)">
       <use xlink:href="#DejaVuSans-33"/>
       <use x="63.623047" xlink:href="#DejaVuSans-32"/>
      </g>
     </g>
    </g>
    <g id="xtick_33">
     <g id="line2d_65">
      <path clip-path="url(#paed2a79323)" d="M 486.71 463.2 
L 486.71 26.8 
" style="fill:none;stroke:#eeeeee;stroke-linecap:square;stroke-width:0.8;"/>
     </g>
     <g id="line2d_66">
      <g>
       <use style="stroke:#000000;stroke-width:0.8;" x="486.71" xlink:href="#m7fe86dcb8f" y="463.2"/>
      </g>
     </g>
     <g id="text_33">
      <!-- 33 -->
      <g transform="translate(481.410038 476.529498)scale(0.0833 -0.0833)">
       <use xlink:href="#DejaVuSans-33"/>
       <use x="63.623047" xlink:href="#DejaVuSans-33"/>
      </g>
     </g>
    </g>
    <g id="xtick_34">
     <g id="line2d_67">
      <path clip-path="url(#paed2a79323)" d="M 500.234531 463.2 
L 500.234531 26.8 
" style="fill:none;stroke:#eeeeee;stroke-linecap:square;stroke-width:0.8;"/>
     </g>
     <g id="line2d_68">
      <g>
       <use style="stroke:#000000;stroke-width:0.8;" x="500.234531" xlink:href="#m7fe86dcb8f" y="463.2"/>
      </g>
     </g>
     <g id="text_34">
      <!-- 34 -->
      <g transform="translate(494.934569 476.529498)scale(0.0833 -0.0833)">
       <use xlink:href="#DejaVuSans-33"/>
       <use x="63.623047" xlink:href="#DejaVuSans-34"/>
      </g>
     </g>
    </g>
    <g id="xtick_35">
     <g id="line2d_69">
      <path clip-path="url(#paed2a79323)" d="M 513.759063 463.2 
L 513.759063 26.8 
" style="fill:none;stroke:#eeeeee;stroke-linecap:square;stroke-width:0.8;"/>
     </g>
     <g id="line2d_70">
      <g>
       <use style="stroke:#000000;stroke-width:0.8;" x="513.759063" xlink:href="#m7fe86dcb8f" y="463.2"/>
      </g>
     </g>
     <g id="text_35">
      <!-- 35 -->
      <g transform="translate(508.4591 476.529498)scale(0.0833 -0.0833)">
       <use xlink:href="#DejaVuSans-33"/>
       <use x="63.623047" xlink:href="#DejaVuSans-35"/>
      </g>
     </g>
    </g>
    <g id="xtick_36">
     <g id="line2d_71">
      <path clip-path="url(#paed2a79323)" d="M 527.283594 463.2 
L 527.283594 26.8 
" style="fill:none;stroke:#eeeeee;stroke-linecap:square;stroke-width:0.8;"/>
     </g>
     <g id="line2d_72">
      <g>
       <use style="stroke:#000000;stroke-width:0.8;" x="527.283594" xlink:href="#m7fe86dcb8f" y="463.2"/>
      </g>
     </g>
     <g id="text_36">
      <!-- 36 -->
      <g transform="translate(521.983631 476.529498)scale(0.0833 -0.0833)">
       <use xlink:href="#DejaVuSans-33"/>
       <use x="63.623047" xlink:href="#DejaVuSans-36"/>
      </g>
     </g>
    </g>
    <g id="xtick_37">
     <g id="line2d_73">
      <path clip-path="url(#paed2a79323)" d="M 540.808125 463.2 
L 540.808125 26.8 
" style="fill:none;stroke:#eeeeee;stroke-linecap:square;stroke-width:0.8;"/>
     </g>
     <g id="line2d_74">
      <g>
       <use style="stroke:#000000;stroke-width:0.8;" x="540.808125" xlink:href="#m7fe86dcb8f" y="463.2"/>
      </g>
     </g>
     <g id="text_37">
      <!-- 37 -->
      <g transform="translate(535.508163 476.529498)scale(0.0833 -0.0833)">
       <use xlink:href="#DejaVuSans-33"/>
       <use x="63.623047" xlink:href="#DejaVuSans-37"/>
      </g>
     </g>
    </g>
    <g id="xtick_38">
     <g id="line2d_75">
      <path clip-path="url(#paed2a79323)" d="M 554.332656 463.2 
L 554.332656 26.8 
" style="fill:none;stroke:#eeeeee;stroke-linecap:square;stroke-width:0.8;"/>
     </g>
     <g id="line2d_76">
      <g>
       <use style="stroke:#000000;stroke-width:0.8;" x="554.332656" xlink:href="#m7fe86dcb8f" y="463.2"/>
      </g>
     </g>
     <g id="text_38">
      <!-- 38 -->
      <g transform="translate(549.032694 476.529498)scale(0.0833 -0.0833)">
       <use xlink:href="#DejaVuSans-33"/>
       <use x="63.623047" xlink:href="#DejaVuSans-38"/>
      </g>
     </g>
    </g>
    <g id="xtick_39">
     <g id="line2d_77">
      <path clip-path="url(#paed2a79323)" d="M 567.857188 463.2 
L 567.857188 26.8 
" style="fill:none;stroke:#eeeeee;stroke-linecap:square;stroke-width:0.8;"/>
     </g>
     <g id="line2d_78">
      <g>
       <use style="stroke:#000000;stroke-width:0.8;" x="567.857188" xlink:href="#m7fe86dcb8f" y="463.2"/>
      </g>
     </g>
     <g id="text_39">
      <!-- 39 -->
      <g transform="translate(562.557225 476.529498)scale(0.0833 -0.0833)">
       <use xlink:href="#DejaVuSans-33"/>
       <use x="63.623047" xlink:href="#DejaVuSans-39"/>
      </g>
     </g>
    </g>
    <g id="xtick_40">
     <g id="line2d_79">
      <path clip-path="url(#paed2a79323)" d="M 581.381719 463.2 
L 581.381719 26.8 
" style="fill:none;stroke:#eeeeee;stroke-linecap:square;stroke-width:0.8;"/>
     </g>
     <g id="line2d_80">
      <g>
       <use style="stroke:#000000;stroke-width:0.8;" x="581.381719" xlink:href="#m7fe86dcb8f" y="463.2"/>
      </g>
     </g>
     <g id="text_40">
      <!-- 40 -->
      <g transform="translate(576.081756 476.529498)scale(0.0833 -0.0833)">
       <use xlink:href="#DejaVuSans-34"/>
       <use x="63.623047" xlink:href="#DejaVuSans-30"/>
      </g>
     </g>
    </g>
    <g id="xtick_41">
     <g id="line2d_81">
      <path clip-path="url(#paed2a79323)" d="M 594.90625 463.2 
L 594.90625 26.8 
" style="fill:none;stroke:#eeeeee;stroke-linecap:square;stroke-width:0.8;"/>
     </g>
     <g id="line2d_82">
      <g>
       <use style="stroke:#000000;stroke-width:0.8;" x="594.90625" xlink:href="#m7fe86dcb8f" y="463.2"/>
      </g>
     </g>
     <g id="text_41">
      <!-- 41 -->
      <g transform="translate(589.606288 476.529498)scale(0.0833 -0.0833)">
       <use xlink:href="#DejaVuSans-34"/>
       <use x="63.623047" xlink:href="#DejaVuSans-31"/>
      </g>
     </g>
    </g>
    <g id="xtick_42">
     <g id="line2d_83">
      <path clip-path="url(#paed2a79323)" d="M 608.430781 463.2 
L 608.430781 26.8 
" style="fill:none;stroke:#eeeeee;stroke-linecap:square;stroke-width:0.8;"/>
     </g>
     <g id="line2d_84">
      <g>
       <use style="stroke:#000000;stroke-width:0.8;" x="608.430781" xlink:href="#m7fe86dcb8f" y="463.2"/>
      </g>
     </g>
     <g id="text_42">
      <!-- 42 -->
      <g transform="translate(603.130819 476.529498)scale(0.0833 -0.0833)">
       <use xlink:href="#DejaVuSans-34"/>
       <use x="63.623047" xlink:href="#DejaVuSans-32"/>
      </g>
     </g>
    </g>
    <g id="xtick_43">
     <g id="line2d_85">
      <path clip-path="url(#paed2a79323)" d="M 621.955313 463.2 
L 621.955313 26.8 
" style="fill:none;stroke:#eeeeee;stroke-linecap:square;stroke-width:0.8;"/>
     </g>
     <g id="line2d_86">
      <g>
       <use style="stroke:#000000;stroke-width:0.8;" x="621.955313" xlink:href="#m7fe86dcb8f" y="463.2"/>
      </g>
     </g>
     <g id="text_43">
      <!-- 43 -->
      <g transform="translate(616.65535 476.529498)scale(0.0833 -0.0833)">
       <use xlink:href="#DejaVuSans-34"/>
       <use x="63.623047" xlink:href="#DejaVuSans-33"/>
      </g>
     </g>
    </g>
    <g id="xtick_44">
     <g id="line2d_87">
      <path clip-path="url(#paed2a79323)" d="M 635.479844 463.2 
L 635.479844 26.8 
" style="fill:none;stroke:#eeeeee;stroke-linecap:square;stroke-width:0.8;"/>
     </g>
     <g id="line2d_88">
      <g>
       <use style="stroke:#000000;stroke-width:0.8;" x="635.479844" xlink:href="#m7fe86dcb8f" y="463.2"/>
      </g>
     </g>
     <g id="text_44">
      <!-- 44 -->
      <g transform="translate(630.179881 476.529498)scale(0.0833 -0.0833)">
       <use xlink:href="#DejaVuSans-34"/>
       <use x="63.623047" xlink:href="#DejaVuSans-34"/>
      </g>
     </g>
    </g>
    <g id="xtick_45">
     <g id="line2d_89">
      <path clip-path="url(#paed2a79323)" d="M 649.004375 463.2 
L 649.004375 26.8 
" style="fill:none;stroke:#eeeeee;stroke-linecap:square;stroke-width:0.8;"/>
     </g>
     <g id="line2d_90">
      <g>
       <use style="stroke:#000000;stroke-width:0.8;" x="649.004375" xlink:href="#m7fe86dcb8f" y="463.2"/>
      </g>
     </g>
     <g id="text_45">
      <!-- 45 -->
      <g transform="translate(643.704413 476.529498)scale(0.0833 -0.0833)">
       <use xlink:href="#DejaVuSans-34"/>
       <use x="63.623047" xlink:href="#DejaVuSans-35"/>
      </g>
     </g>
    </g>
    <g id="xtick_46">
     <g id="line2d_91">
      <path clip-path="url(#paed2a79323)" d="M 662.528906 463.2 
L 662.528906 26.8 
" style="fill:none;stroke:#eeeeee;stroke-linecap:square;stroke-width:0.8;"/>
     </g>
     <g id="line2d_92">
      <g>
       <use style="stroke:#000000;stroke-width:0.8;" x="662.528906" xlink:href="#m7fe86dcb8f" y="463.2"/>
      </g>
     </g>
     <g id="text_46">
      <!-- 46 -->
      <g transform="translate(657.228944 476.529498)scale(0.0833 -0.0833)">
       <use xlink:href="#DejaVuSans-34"/>
       <use x="63.623047" xlink:href="#DejaVuSans-36"/>
      </g>
     </g>
    </g>
    <g id="xtick_47">
     <g id="line2d_93">
      <path clip-path="url(#paed2a79323)" d="M 676.053438 463.2 
L 676.053438 26.8 
" style="fill:none;stroke:#eeeeee;stroke-linecap:square;stroke-width:0.8;"/>
     </g>
     <g id="line2d_94">
      <g>
       <use style="stroke:#000000;stroke-width:0.8;" x="676.053438" xlink:href="#m7fe86dcb8f" y="463.2"/>
      </g>
     </g>
     <g id="text_47">
      <!-- 47 -->
      <g transform="translate(670.753475 476.529498)scale(0.0833 -0.0833)">
       <use xlink:href="#DejaVuSans-34"/>
       <use x="63.623047" xlink:href="#DejaVuSans-37"/>
      </g>
     </g>
    </g>
    <g id="xtick_48">
     <g id="line2d_95">
      <path clip-path="url(#paed2a79323)" d="M 689.577969 463.2 
L 689.577969 26.8 
" style="fill:none;stroke:#eeeeee;stroke-linecap:square;stroke-width:0.8;"/>
     </g>
     <g id="line2d_96">
      <g>
       <use style="stroke:#000000;stroke-width:0.8;" x="689.577969" xlink:href="#m7fe86dcb8f" y="463.2"/>
      </g>
     </g>
     <g id="text_48">
      <!-- 48 -->
      <g transform="translate(684.278006 476.529498)scale(0.0833 -0.0833)">
       <use xlink:href="#DejaVuSans-34"/>
       <use x="63.623047" xlink:href="#DejaVuSans-38"/>
      </g>
     </g>
    </g>
    <g id="xtick_49">
     <g id="line2d_97">
      <path clip-path="url(#paed2a79323)" d="M 703.1025 463.2 
L 703.1025 26.8 
" style="fill:none;stroke:#eeeeee;stroke-linecap:square;stroke-width:0.8;"/>
     </g>
     <g id="line2d_98">
      <g>
       <use style="stroke:#000000;stroke-width:0.8;" x="703.1025" xlink:href="#m7fe86dcb8f" y="463.2"/>
      </g>
     </g>
     <g id="text_49">
      <!-- 49 -->
      <g transform="translate(697.802538 476.529498)scale(0.0833 -0.0833)">
       <use xlink:href="#DejaVuSans-34"/>
       <use x="63.623047" xlink:href="#DejaVuSans-39"/>
      </g>
     </g>
    </g>
    <g id="xtick_50">
     <g id="line2d_99">
      <path clip-path="url(#paed2a79323)" d="M 716.627031 463.2 
L 716.627031 26.8 
" style="fill:none;stroke:#eeeeee;stroke-linecap:square;stroke-width:0.8;"/>
     </g>
     <g id="line2d_100">
      <g>
       <use style="stroke:#000000;stroke-width:0.8;" x="716.627031" xlink:href="#m7fe86dcb8f" y="463.2"/>
      </g>
     </g>
     <g id="text_50">
      <!-- 50 -->
      <g transform="translate(711.327069 476.529498)scale(0.0833 -0.0833)">
       <use xlink:href="#DejaVuSans-35"/>
       <use x="63.623047" xlink:href="#DejaVuSans-30"/>
      </g>
     </g>
    </g>
    <g id="xtick_51">
     <g id="line2d_101">
      <path clip-path="url(#paed2a79323)" d="M 730.151563 463.2 
L 730.151563 26.8 
" style="fill:none;stroke:#eeeeee;stroke-linecap:square;stroke-width:0.8;"/>
     </g>
     <g id="line2d_102">
      <g>
       <use style="stroke:#000000;stroke-width:0.8;" x="730.151563" xlink:href="#m7fe86dcb8f" y="463.2"/>
      </g>
     </g>
     <g id="text_51">
      <!-- 51 -->
      <g transform="translate(724.8516 476.529498)scale(0.0833 -0.0833)">
       <use xlink:href="#DejaVuSans-35"/>
       <use x="63.623047" xlink:href="#DejaVuSans-31"/>
      </g>
     </g>
    </g>
    <g id="xtick_52">
     <g id="line2d_103">
      <path clip-path="url(#paed2a79323)" d="M 743.676094 463.2 
L 743.676094 26.8 
" style="fill:none;stroke:#eeeeee;stroke-linecap:square;stroke-width:0.8;"/>
     </g>
     <g id="line2d_104">
      <g>
       <use style="stroke:#000000;stroke-width:0.8;" x="743.676094" xlink:href="#m7fe86dcb8f" y="463.2"/>
      </g>
     </g>
     <g id="text_52">
      <!-- 52 -->
      <g transform="translate(738.376131 476.529498)scale(0.0833 -0.0833)">
       <use xlink:href="#DejaVuSans-35"/>
       <use x="63.623047" xlink:href="#DejaVuSans-32"/>
      </g>
     </g>
    </g>
    <g id="xtick_53">
     <g id="line2d_105">
      <path clip-path="url(#paed2a79323)" d="M 757.200625 463.2 
L 757.200625 26.8 
" style="fill:none;stroke:#eeeeee;stroke-linecap:square;stroke-width:0.8;"/>
     </g>
     <g id="line2d_106">
      <g>
       <use style="stroke:#000000;stroke-width:0.8;" x="757.200625" xlink:href="#m7fe86dcb8f" y="463.2"/>
      </g>
     </g>
     <g id="text_53">
      <!-- 53 -->
      <g transform="translate(751.900663 476.529498)scale(0.0833 -0.0833)">
       <use xlink:href="#DejaVuSans-35"/>
       <use x="63.623047" xlink:href="#DejaVuSans-33"/>
      </g>
     </g>
    </g>
    <g id="xtick_54">
     <g id="line2d_107">
      <path clip-path="url(#paed2a79323)" d="M 770.725156 463.2 
L 770.725156 26.8 
" style="fill:none;stroke:#eeeeee;stroke-linecap:square;stroke-width:0.8;"/>
     </g>
     <g id="line2d_108">
      <g>
       <use style="stroke:#000000;stroke-width:0.8;" x="770.725156" xlink:href="#m7fe86dcb8f" y="463.2"/>
      </g>
     </g>
     <g id="text_54">
      <!-- 54 -->
      <g transform="translate(765.425194 476.529498)scale(0.0833 -0.0833)">
       <use xlink:href="#DejaVuSans-35"/>
       <use x="63.623047" xlink:href="#DejaVuSans-34"/>
      </g>
     </g>
    </g>
    <g id="xtick_55">
     <g id="line2d_109">
      <path clip-path="url(#paed2a79323)" d="M 784.249688 463.2 
L 784.249688 26.8 
" style="fill:none;stroke:#eeeeee;stroke-linecap:square;stroke-width:0.8;"/>
     </g>
     <g id="line2d_110">
      <g>
       <use style="stroke:#000000;stroke-width:0.8;" x="784.249688" xlink:href="#m7fe86dcb8f" y="463.2"/>
      </g>
     </g>
     <g id="text_55">
      <!-- 55 -->
      <g transform="translate(778.949725 476.529498)scale(0.0833 -0.0833)">
       <use xlink:href="#DejaVuSans-35"/>
       <use x="63.623047" xlink:href="#DejaVuSans-35"/>
      </g>
     </g>
    </g>
    <g id="xtick_56">
     <g id="line2d_111">
      <path clip-path="url(#paed2a79323)" d="M 797.774219 463.2 
L 797.774219 26.8 
" style="fill:none;stroke:#eeeeee;stroke-linecap:square;stroke-width:0.8;"/>
     </g>
     <g id="line2d_112">
      <g>
       <use style="stroke:#000000;stroke-width:0.8;" x="797.774219" xlink:href="#m7fe86dcb8f" y="463.2"/>
      </g>
     </g>
     <g id="text_56">
      <!-- 56 -->
      <g transform="translate(792.474256 476.529498)scale(0.0833 -0.0833)">
       <use xlink:href="#DejaVuSans-35"/>
       <use x="63.623047" xlink:href="#DejaVuSans-36"/>
      </g>
     </g>
    </g>
    <g id="xtick_57">
     <g id="line2d_113">
      <path clip-path="url(#paed2a79323)" d="M 811.29875 463.2 
L 811.29875 26.8 
" style="fill:none;stroke:#eeeeee;stroke-linecap:square;stroke-width:0.8;"/>
     </g>
     <g id="line2d_114">
      <g>
       <use style="stroke:#000000;stroke-width:0.8;" x="811.29875" xlink:href="#m7fe86dcb8f" y="463.2"/>
      </g>
     </g>
     <g id="text_57">
      <!-- 57 -->
      <g transform="translate(805.998788 476.529498)scale(0.0833 -0.0833)">
       <use xlink:href="#DejaVuSans-35"/>
       <use x="63.623047" xlink:href="#DejaVuSans-37"/>
      </g>
     </g>
    </g>
    <g id="xtick_58">
     <g id="line2d_115">
      <path clip-path="url(#paed2a79323)" d="M 824.823281 463.2 
L 824.823281 26.8 
" style="fill:none;stroke:#eeeeee;stroke-linecap:square;stroke-width:0.8;"/>
     </g>
     <g id="line2d_116">
      <g>
       <use style="stroke:#000000;stroke-width:0.8;" x="824.823281" xlink:href="#m7fe86dcb8f" y="463.2"/>
      </g>
     </g>
     <g id="text_58">
      <!-- 58 -->
      <g transform="translate(819.523319 476.529498)scale(0.0833 -0.0833)">
       <use xlink:href="#DejaVuSans-35"/>
       <use x="63.623047" xlink:href="#DejaVuSans-38"/>
      </g>
     </g>
    </g>
    <g id="xtick_59">
     <g id="line2d_117">
      <path clip-path="url(#paed2a79323)" d="M 838.347813 463.2 
L 838.347813 26.8 
" style="fill:none;stroke:#eeeeee;stroke-linecap:square;stroke-width:0.8;"/>
     </g>
     <g id="line2d_118">
      <g>
       <use style="stroke:#000000;stroke-width:0.8;" x="838.347813" xlink:href="#m7fe86dcb8f" y="463.2"/>
      </g>
     </g>
     <g id="text_59">
      <!-- 59 -->
      <g transform="translate(833.04785 476.529498)scale(0.0833 -0.0833)">
       <use xlink:href="#DejaVuSans-35"/>
       <use x="63.623047" xlink:href="#DejaVuSans-39"/>
      </g>
     </g>
    </g>
    <g id="xtick_60">
     <g id="line2d_119">
      <path clip-path="url(#paed2a79323)" d="M 851.872344 463.2 
L 851.872344 26.8 
" style="fill:none;stroke:#eeeeee;stroke-linecap:square;stroke-width:0.8;"/>
     </g>
     <g id="line2d_120">
      <g>
       <use style="stroke:#000000;stroke-width:0.8;" x="851.872344" xlink:href="#m7fe86dcb8f" y="463.2"/>
      </g>
     </g>
     <g id="text_60">
      <!-- 60 -->
      <g transform="translate(846.572381 476.529498)scale(0.0833 -0.0833)">
       <use xlink:href="#DejaVuSans-36"/>
       <use x="63.623047" xlink:href="#DejaVuSans-30"/>
      </g>
     </g>
    </g>
    <g id="xtick_61">
     <g id="line2d_121">
      <path clip-path="url(#paed2a79323)" d="M 865.396875 463.2 
L 865.396875 26.8 
" style="fill:none;stroke:#eeeeee;stroke-linecap:square;stroke-width:0.8;"/>
     </g>
     <g id="line2d_122">
      <g>
       <use style="stroke:#000000;stroke-width:0.8;" x="865.396875" xlink:href="#m7fe86dcb8f" y="463.2"/>
      </g>
     </g>
     <g id="text_61">
      <!-- 61 -->
      <g transform="translate(860.096913 476.529498)scale(0.0833 -0.0833)">
       <use xlink:href="#DejaVuSans-36"/>
       <use x="63.623047" xlink:href="#DejaVuSans-31"/>
      </g>
     </g>
    </g>
    <g id="xtick_62">
     <g id="line2d_123">
      <path clip-path="url(#paed2a79323)" d="M 878.921406 463.2 
L 878.921406 26.8 
" style="fill:none;stroke:#eeeeee;stroke-linecap:square;stroke-width:0.8;"/>
     </g>
     <g id="line2d_124">
      <g>
       <use style="stroke:#000000;stroke-width:0.8;" x="878.921406" xlink:href="#m7fe86dcb8f" y="463.2"/>
      </g>
     </g>
     <g id="text_62">
      <!-- 62 -->
      <g transform="translate(873.621444 476.529498)scale(0.0833 -0.0833)">
       <use xlink:href="#DejaVuSans-36"/>
       <use x="63.623047" xlink:href="#DejaVuSans-32"/>
      </g>
     </g>
    </g>
    <g id="xtick_63">
     <g id="line2d_125">
      <path clip-path="url(#paed2a79323)" d="M 892.445938 463.2 
L 892.445938 26.8 
" style="fill:none;stroke:#eeeeee;stroke-linecap:square;stroke-width:0.8;"/>
     </g>
     <g id="line2d_126">
      <g>
       <use style="stroke:#000000;stroke-width:0.8;" x="892.445938" xlink:href="#m7fe86dcb8f" y="463.2"/>
      </g>
     </g>
     <g id="text_63">
      <!-- 63 -->
      <g transform="translate(887.145975 476.529498)scale(0.0833 -0.0833)">
       <use xlink:href="#DejaVuSans-36"/>
       <use x="63.623047" xlink:href="#DejaVuSans-33"/>
      </g>
     </g>
    </g>
    <g id="xtick_64">
     <g id="line2d_127">
      <path clip-path="url(#paed2a79323)" d="M 905.970469 463.2 
L 905.970469 26.8 
" style="fill:none;stroke:#eeeeee;stroke-linecap:square;stroke-width:0.8;"/>
     </g>
     <g id="line2d_128">
      <g>
       <use style="stroke:#000000;stroke-width:0.8;" x="905.970469" xlink:href="#m7fe86dcb8f" y="463.2"/>
      </g>
     </g>
     <g id="text_64">
      <!-- 64 -->
      <g transform="translate(900.670506 476.529498)scale(0.0833 -0.0833)">
       <use xlink:href="#DejaVuSans-36"/>
       <use x="63.623047" xlink:href="#DejaVuSans-34"/>
      </g>
     </g>
    </g>
    <g id="xtick_65">
     <g id="line2d_129">
      <path clip-path="url(#paed2a79323)" d="M 919.495 463.2 
L 919.495 26.8 
" style="fill:none;stroke:#eeeeee;stroke-linecap:square;stroke-width:0.8;"/>
     </g>
     <g id="line2d_130">
      <g>
       <use style="stroke:#000000;stroke-width:0.8;" x="919.495" xlink:href="#m7fe86dcb8f" y="463.2"/>
      </g>
     </g>
     <g id="text_65">
      <!-- 65 -->
      <g transform="translate(914.195038 476.529498)scale(0.0833 -0.0833)">
       <use xlink:href="#DejaVuSans-36"/>
       <use x="63.623047" xlink:href="#DejaVuSans-35"/>
      </g>
     </g>
    </g>
    <g id="xtick_66">
     <g id="line2d_131">
      <path clip-path="url(#paed2a79323)" d="M 933.019531 463.2 
L 933.019531 26.8 
" style="fill:none;stroke:#eeeeee;stroke-linecap:square;stroke-width:0.8;"/>
     </g>
     <g id="line2d_132">
      <g>
       <use style="stroke:#000000;stroke-width:0.8;" x="933.019531" xlink:href="#m7fe86dcb8f" y="463.2"/>
      </g>
     </g>
     <g id="text_66">
      <!-- 66 -->
      <g transform="translate(927.719569 476.529498)scale(0.0833 -0.0833)">
       <use xlink:href="#DejaVuSans-36"/>
       <use x="63.623047" xlink:href="#DejaVuSans-36"/>
      </g>
     </g>
    </g>
    <g id="xtick_67">
     <g id="line2d_133">
      <path clip-path="url(#paed2a79323)" d="M 946.544063 463.2 
L 946.544063 26.8 
" style="fill:none;stroke:#eeeeee;stroke-linecap:square;stroke-width:0.8;"/>
     </g>
     <g id="line2d_134">
      <g>
       <use style="stroke:#000000;stroke-width:0.8;" x="946.544063" xlink:href="#m7fe86dcb8f" y="463.2"/>
      </g>
     </g>
     <g id="text_67">
      <!-- 67 -->
      <g transform="translate(941.2441 476.529498)scale(0.0833 -0.0833)">
       <use xlink:href="#DejaVuSans-36"/>
       <use x="63.623047" xlink:href="#DejaVuSans-37"/>
      </g>
     </g>
    </g>
    <g id="xtick_68">
     <g id="line2d_135">
      <path clip-path="url(#paed2a79323)" d="M 960.068594 463.2 
L 960.068594 26.8 
" style="fill:none;stroke:#eeeeee;stroke-linecap:square;stroke-width:0.8;"/>
     </g>
     <g id="line2d_136">
      <g>
       <use style="stroke:#000000;stroke-width:0.8;" x="960.068594" xlink:href="#m7fe86dcb8f" y="463.2"/>
      </g>
     </g>
     <g id="text_68">
      <!-- 68 -->
      <g transform="translate(954.768631 476.529498)scale(0.0833 -0.0833)">
       <use xlink:href="#DejaVuSans-36"/>
       <use x="63.623047" xlink:href="#DejaVuSans-38"/>
      </g>
     </g>
    </g>
    <g id="xtick_69">
     <g id="line2d_137">
      <path clip-path="url(#paed2a79323)" d="M 973.593125 463.2 
L 973.593125 26.8 
" style="fill:none;stroke:#eeeeee;stroke-linecap:square;stroke-width:0.8;"/>
     </g>
     <g id="line2d_138">
      <g>
       <use style="stroke:#000000;stroke-width:0.8;" x="973.593125" xlink:href="#m7fe86dcb8f" y="463.2"/>
      </g>
     </g>
     <g id="text_69">
      <!-- 69 -->
      <g transform="translate(968.293163 476.529498)scale(0.0833 -0.0833)">
       <use xlink:href="#DejaVuSans-36"/>
       <use x="63.623047" xlink:href="#DejaVuSans-39"/>
      </g>
     </g>
    </g>
    <g id="xtick_70">
     <g id="line2d_139">
      <path clip-path="url(#paed2a79323)" d="M 987.117656 463.2 
L 987.117656 26.8 
" style="fill:none;stroke:#eeeeee;stroke-linecap:square;stroke-width:0.8;"/>
     </g>
     <g id="line2d_140">
      <g>
       <use style="stroke:#000000;stroke-width:0.8;" x="987.117656" xlink:href="#m7fe86dcb8f" y="463.2"/>
      </g>
     </g>
     <g id="text_70">
      <!-- 70 -->
      <g transform="translate(981.817694 476.529498)scale(0.0833 -0.0833)">
       <use xlink:href="#DejaVuSans-37"/>
       <use x="63.623047" xlink:href="#DejaVuSans-30"/>
      </g>
     </g>
    </g>
    <g id="xtick_71">
     <g id="line2d_141">
      <path clip-path="url(#paed2a79323)" d="M 1000.642188 463.2 
L 1000.642188 26.8 
" style="fill:none;stroke:#eeeeee;stroke-linecap:square;stroke-width:0.8;"/>
     </g>
     <g id="line2d_142">
      <g>
       <use style="stroke:#000000;stroke-width:0.8;" x="1000.642188" xlink:href="#m7fe86dcb8f" y="463.2"/>
      </g>
     </g>
     <g id="text_71">
      <!-- 71 -->
      <g transform="translate(995.342225 476.529498)scale(0.0833 -0.0833)">
       <use xlink:href="#DejaVuSans-37"/>
       <use x="63.623047" xlink:href="#DejaVuSans-31"/>
      </g>
     </g>
    </g>
    <g id="xtick_72">
     <g id="line2d_143">
      <path clip-path="url(#paed2a79323)" d="M 1014.166719 463.2 
L 1014.166719 26.8 
" style="fill:none;stroke:#eeeeee;stroke-linecap:square;stroke-width:0.8;"/>
     </g>
     <g id="line2d_144">
      <g>
       <use style="stroke:#000000;stroke-width:0.8;" x="1014.166719" xlink:href="#m7fe86dcb8f" y="463.2"/>
      </g>
     </g>
     <g id="text_72">
      <!-- 72 -->
      <g transform="translate(1008.866756 476.529498)scale(0.0833 -0.0833)">
       <use xlink:href="#DejaVuSans-37"/>
       <use x="63.623047" xlink:href="#DejaVuSans-32"/>
      </g>
     </g>
    </g>
    <g id="xtick_73">
     <g id="line2d_145">
      <path clip-path="url(#paed2a79323)" d="M 1027.69125 463.2 
L 1027.69125 26.8 
" style="fill:none;stroke:#eeeeee;stroke-linecap:square;stroke-width:0.8;"/>
     </g>
     <g id="line2d_146">
      <g>
       <use style="stroke:#000000;stroke-width:0.8;" x="1027.69125" xlink:href="#m7fe86dcb8f" y="463.2"/>
      </g>
     </g>
     <g id="text_73">
      <!-- 73 -->
      <g transform="translate(1022.391288 476.529498)scale(0.0833 -0.0833)">
       <use xlink:href="#DejaVuSans-37"/>
       <use x="63.623047" xlink:href="#DejaVuSans-33"/>
      </g>
     </g>
    </g>
    <g id="xtick_74">
     <g id="line2d_147">
      <path clip-path="url(#paed2a79323)" d="M 1041.215781 463.2 
L 1041.215781 26.8 
" style="fill:none;stroke:#eeeeee;stroke-linecap:square;stroke-width:0.8;"/>
     </g>
     <g id="line2d_148">
      <g>
       <use style="stroke:#000000;stroke-width:0.8;" x="1041.215781" xlink:href="#m7fe86dcb8f" y="463.2"/>
      </g>
     </g>
     <g id="text_74">
      <!-- 74 -->
      <g transform="translate(1035.915819 476.529498)scale(0.0833 -0.0833)">
       <use xlink:href="#DejaVuSans-37"/>
       <use x="63.623047" xlink:href="#DejaVuSans-34"/>
      </g>
     </g>
    </g>
    <g id="xtick_75">
     <g id="line2d_149">
      <path clip-path="url(#paed2a79323)" d="M 1054.740313 463.2 
L 1054.740313 26.8 
" style="fill:none;stroke:#eeeeee;stroke-linecap:square;stroke-width:0.8;"/>
     </g>
     <g id="line2d_150">
      <g>
       <use style="stroke:#000000;stroke-width:0.8;" x="1054.740313" xlink:href="#m7fe86dcb8f" y="463.2"/>
      </g>
     </g>
     <g id="text_75">
      <!-- 75 -->
      <g transform="translate(1049.44035 476.529498)scale(0.0833 -0.0833)">
       <use xlink:href="#DejaVuSans-37"/>
       <use x="63.623047" xlink:href="#DejaVuSans-35"/>
      </g>
     </g>
    </g>
    <g id="xtick_76">
     <g id="line2d_151">
      <path clip-path="url(#paed2a79323)" d="M 1068.264844 463.2 
L 1068.264844 26.8 
" style="fill:none;stroke:#eeeeee;stroke-linecap:square;stroke-width:0.8;"/>
     </g>
     <g id="line2d_152">
      <g>
       <use style="stroke:#000000;stroke-width:0.8;" x="1068.264844" xlink:href="#m7fe86dcb8f" y="463.2"/>
      </g>
     </g>
     <g id="text_76">
      <!-- 76 -->
      <g transform="translate(1062.964881 476.529498)scale(0.0833 -0.0833)">
       <use xlink:href="#DejaVuSans-37"/>
       <use x="63.623047" xlink:href="#DejaVuSans-36"/>
      </g>
     </g>
    </g>
    <g id="xtick_77">
     <g id="line2d_153">
      <path clip-path="url(#paed2a79323)" d="M 1081.789375 463.2 
L 1081.789375 26.8 
" style="fill:none;stroke:#eeeeee;stroke-linecap:square;stroke-width:0.8;"/>
     </g>
     <g id="line2d_154">
      <g>
       <use style="stroke:#000000;stroke-width:0.8;" x="1081.789375" xlink:href="#m7fe86dcb8f" y="463.2"/>
      </g>
     </g>
     <g id="text_77">
      <!-- 77 -->
      <g transform="translate(1076.489413 476.529498)scale(0.0833 -0.0833)">
       <use xlink:href="#DejaVuSans-37"/>
       <use x="63.623047" xlink:href="#DejaVuSans-37"/>
      </g>
     </g>
    </g>
    <g id="xtick_78">
     <g id="line2d_155">
      <path clip-path="url(#paed2a79323)" d="M 1095.313906 463.2 
L 1095.313906 26.8 
" style="fill:none;stroke:#eeeeee;stroke-linecap:square;stroke-width:0.8;"/>
     </g>
     <g id="line2d_156">
      <g>
       <use style="stroke:#000000;stroke-width:0.8;" x="1095.313906" xlink:href="#m7fe86dcb8f" y="463.2"/>
      </g>
     </g>
     <g id="text_78">
      <!-- 78 -->
      <g transform="translate(1090.013944 476.529498)scale(0.0833 -0.0833)">
       <use xlink:href="#DejaVuSans-37"/>
       <use x="63.623047" xlink:href="#DejaVuSans-38"/>
      </g>
     </g>
    </g>
    <g id="xtick_79">
     <g id="line2d_157">
      <path clip-path="url(#paed2a79323)" d="M 1108.838438 463.2 
L 1108.838438 26.8 
" style="fill:none;stroke:#eeeeee;stroke-linecap:square;stroke-width:0.8;"/>
     </g>
     <g id="line2d_158">
      <g>
       <use style="stroke:#000000;stroke-width:0.8;" x="1108.838438" xlink:href="#m7fe86dcb8f" y="463.2"/>
      </g>
     </g>
     <g id="text_79">
      <!-- 79 -->
      <g transform="translate(1103.538475 476.529498)scale(0.0833 -0.0833)">
       <use xlink:href="#DejaVuSans-37"/>
       <use x="63.623047" xlink:href="#DejaVuSans-39"/>
      </g>
     </g>
    </g>
    <g id="xtick_80">
     <g id="line2d_159">
      <path clip-path="url(#paed2a79323)" d="M 1122.362969 463.2 
L 1122.362969 26.8 
" style="fill:none;stroke:#eeeeee;stroke-linecap:square;stroke-width:0.8;"/>
     </g>
     <g id="line2d_160">
      <g>
       <use style="stroke:#000000;stroke-width:0.8;" x="1122.362969" xlink:href="#m7fe86dcb8f" y="463.2"/>
      </g>
     </g>
     <g id="text_80">
      <!-- 80 -->
      <g transform="translate(1117.063006 476.529498)scale(0.0833 -0.0833)">
       <use xlink:href="#DejaVuSans-38"/>
       <use x="63.623047" xlink:href="#DejaVuSans-30"/>
      </g>
     </g>
    </g>
    <g id="xtick_81">
     <g id="line2d_161">
      <path clip-path="url(#paed2a79323)" d="M 1135.8875 463.2 
L 1135.8875 26.8 
" style="fill:none;stroke:#eeeeee;stroke-linecap:square;stroke-width:0.8;"/>
     </g>
     <g id="line2d_162">
      <g>
       <use style="stroke:#000000;stroke-width:0.8;" x="1135.8875" xlink:href="#m7fe86dcb8f" y="463.2"/>
      </g>
     </g>
     <g id="text_81">
      <!-- 81 -->
      <g transform="translate(1130.587538 476.529498)scale(0.0833 -0.0833)">
       <use xlink:href="#DejaVuSans-38"/>
       <use x="63.623047" xlink:href="#DejaVuSans-31"/>
      </g>
     </g>
    </g>
    <g id="text_82">
     <!-- Books -->
     <defs>
      <path d="M 19.671875 34.8125 
L 19.671875 8.109375 
L 35.5 8.109375 
Q 43.453125 8.109375 47.28125 11.40625 
Q 51.125 14.703125 51.125 21.484375 
Q 51.125 28.328125 47.28125 31.5625 
Q 43.453125 34.8125 35.5 34.8125 
z
M 19.671875 64.796875 
L 19.671875 42.828125 
L 34.28125 42.828125 
Q 41.5 42.828125 45.03125 45.53125 
Q 48.578125 48.25 48.578125 53.8125 
Q 48.578125 59.328125 45.03125 62.0625 
Q 41.5 64.796875 34.28125 64.796875 
z
M 9.8125 72.90625 
L 35.015625 72.90625 
Q 46.296875 72.90625 52.390625 68.21875 
Q 58.5 63.53125 58.5 54.890625 
Q 58.5 48.1875 55.375 44.234375 
Q 52.25 40.28125 46.1875 39.3125 
Q 53.46875 37.75 57.5 32.78125 
Q 61.53125 27.828125 61.53125 20.40625 
Q 61.53125 10.640625 54.890625 5.3125 
Q 48.25 0 35.984375 0 
L 9.8125 0 
z
" id="DejaVuSans-42"/>
      <path d="M 30.609375 48.390625 
Q 23.390625 48.390625 19.1875 42.75 
Q 14.984375 37.109375 14.984375 27.296875 
Q 14.984375 17.484375 19.15625 11.84375 
Q 23.34375 6.203125 30.609375 6.203125 
Q 37.796875 6.203125 41.984375 11.859375 
Q 46.1875 17.53125 46.1875 27.296875 
Q 46.1875 37.015625 41.984375 42.703125 
Q 37.796875 48.390625 30.609375 48.390625 
z
M 30.609375 56 
Q 42.328125 56 49.015625 48.375 
Q 55.71875 40.765625 55.71875 27.296875 
Q 55.71875 13.875 49.015625 6.21875 
Q 42.328125 -1.421875 30.609375 -1.421875 
Q 18.84375 -1.421875 12.171875 6.21875 
Q 5.515625 13.875 5.515625 27.296875 
Q 5.515625 40.765625 12.171875 48.375 
Q 18.84375 56 30.609375 56 
z
" id="DejaVuSans-6f"/>
      <path d="M 9.078125 75.984375 
L 18.109375 75.984375 
L 18.109375 31.109375 
L 44.921875 54.6875 
L 56.390625 54.6875 
L 27.390625 29.109375 
L 57.625 0 
L 45.90625 0 
L 18.109375 26.703125 
L 18.109375 0 
L 9.078125 0 
z
" id="DejaVuSans-6b"/>
      <path d="M 44.28125 53.078125 
L 44.28125 44.578125 
Q 40.484375 46.53125 36.375 47.5 
Q 32.28125 48.484375 27.875 48.484375 
Q 21.1875 48.484375 17.84375 46.4375 
Q 14.5 44.390625 14.5 40.28125 
Q 14.5 37.15625 16.890625 35.375 
Q 19.28125 33.59375 26.515625 31.984375 
L 29.59375 31.296875 
Q 39.15625 29.25 43.1875 25.515625 
Q 47.21875 21.78125 47.21875 15.09375 
Q 47.21875 7.46875 41.1875 3.015625 
Q 35.15625 -1.421875 24.609375 -1.421875 
Q 20.21875 -1.421875 15.453125 -0.5625 
Q 10.6875 0.296875 5.421875 2 
L 5.421875 11.28125 
Q 10.40625 8.6875 15.234375 7.390625 
Q 20.0625 6.109375 24.8125 6.109375 
Q 31.15625 6.109375 34.5625 8.28125 
Q 37.984375 10.453125 37.984375 14.40625 
Q 37.984375 18.0625 35.515625 20.015625 
Q 33.0625 21.96875 24.703125 23.78125 
L 21.578125 24.515625 
Q 13.234375 26.265625 9.515625 29.90625 
Q 5.8125 33.546875 5.8125 39.890625 
Q 5.8125 47.609375 11.28125 51.796875 
Q 16.75 56 26.8125 56 
Q 31.78125 56 36.171875 55.265625 
Q 40.578125 54.546875 44.28125 53.078125 
z
" id="DejaVuSans-73"/>
     </defs>
     <g transform="translate(579.857031 489.860316)scale(0.1 -0.1)">
      <use xlink:href="#DejaVuSans-42"/>
      <use x="68.603516" xlink:href="#DejaVuSans-6f"/>
      <use x="129.785156" xlink:href="#DejaVuSans-6f"/>
      <use x="190.966797" xlink:href="#DejaVuSans-6b"/>
      <use x="248.876953" xlink:href="#DejaVuSans-73"/>
     </g>
    </g>
   </g>
   <g id="matplotlib.axis_2">
    <g id="ytick_1">
     <g id="line2d_163">
      <path clip-path="url(#paed2a79323)" d="M 53.925 443.363636 
L 1135.8875 443.363636 
" style="fill:none;stroke:#eeeeee;stroke-linecap:square;stroke-width:0.8;"/>
     </g>
     <g id="line2d_164">
      <defs>
       <path d="M 0 0 
L -3.5 0 
" id="madba436990" style="stroke:#000000;stroke-width:0.8;"/>
      </defs>
      <g>
       <use style="stroke:#000000;stroke-width:0.8;" x="53.925" xlink:href="#madba436990" y="443.363636"/>
      </g>
     </g>
     <g id="text_83">
      <!-- 0.00 -->
      <defs>
       <path d="M 10.6875 12.40625 
L 21 12.40625 
L 21 0 
L 10.6875 0 
z
" id="DejaVuSans-2e"/>
      </defs>
      <g transform="translate(24.659375 447.162855)scale(0.1 -0.1)">
       <use xlink:href="#DejaVuSans-30"/>
       <use x="63.623047" xlink:href="#DejaVuSans-2e"/>
       <use x="95.410156" xlink:href="#DejaVuSans-30"/>
       <use x="159.033203" xlink:href="#DejaVuSans-30"/>
      </g>
     </g>
    </g>
    <g id="ytick_2">
     <g id="line2d_165">
      <path clip-path="url(#paed2a79323)" d="M 53.925 387.533692 
L 1135.8875 387.533692 
" style="fill:none;stroke:#eeeeee;stroke-linecap:square;stroke-width:0.8;"/>
     </g>
     <g id="line2d_166">
      <g>
       <use style="stroke:#000000;stroke-width:0.8;" x="53.925" xlink:href="#madba436990" y="387.533692"/>
      </g>
     </g>
     <g id="text_84">
      <!-- 0.01 -->
      <g transform="translate(24.659375 391.332911)scale(0.1 -0.1)">
       <use xlink:href="#DejaVuSans-30"/>
       <use x="63.623047" xlink:href="#DejaVuSans-2e"/>
       <use x="95.410156" xlink:href="#DejaVuSans-30"/>
       <use x="159.033203" xlink:href="#DejaVuSans-31"/>
      </g>
     </g>
    </g>
    <g id="ytick_3">
     <g id="line2d_167">
      <path clip-path="url(#paed2a79323)" d="M 53.925 331.703748 
L 1135.8875 331.703748 
" style="fill:none;stroke:#eeeeee;stroke-linecap:square;stroke-width:0.8;"/>
     </g>
     <g id="line2d_168">
      <g>
       <use style="stroke:#000000;stroke-width:0.8;" x="53.925" xlink:href="#madba436990" y="331.703748"/>
      </g>
     </g>
     <g id="text_85">
      <!-- 0.02 -->
      <g transform="translate(24.659375 335.502967)scale(0.1 -0.1)">
       <use xlink:href="#DejaVuSans-30"/>
       <use x="63.623047" xlink:href="#DejaVuSans-2e"/>
       <use x="95.410156" xlink:href="#DejaVuSans-30"/>
       <use x="159.033203" xlink:href="#DejaVuSans-32"/>
      </g>
     </g>
    </g>
    <g id="ytick_4">
     <g id="line2d_169">
      <path clip-path="url(#paed2a79323)" d="M 53.925 275.873804 
L 1135.8875 275.873804 
" style="fill:none;stroke:#eeeeee;stroke-linecap:square;stroke-width:0.8;"/>
     </g>
     <g id="line2d_170">
      <g>
       <use style="stroke:#000000;stroke-width:0.8;" x="53.925" xlink:href="#madba436990" y="275.873804"/>
      </g>
     </g>
     <g id="text_86">
      <!-- 0.03 -->
      <g transform="translate(24.659375 279.673023)scale(0.1 -0.1)">
       <use xlink:href="#DejaVuSans-30"/>
       <use x="63.623047" xlink:href="#DejaVuSans-2e"/>
       <use x="95.410156" xlink:href="#DejaVuSans-30"/>
       <use x="159.033203" xlink:href="#DejaVuSans-33"/>
      </g>
     </g>
    </g>
    <g id="ytick_5">
     <g id="line2d_171">
      <path clip-path="url(#paed2a79323)" d="M 53.925 220.04386 
L 1135.8875 220.04386 
" style="fill:none;stroke:#eeeeee;stroke-linecap:square;stroke-width:0.8;"/>
     </g>
     <g id="line2d_172">
      <g>
       <use style="stroke:#000000;stroke-width:0.8;" x="53.925" xlink:href="#madba436990" y="220.04386"/>
      </g>
     </g>
     <g id="text_87">
      <!-- 0.04 -->
      <g transform="translate(24.659375 223.843079)scale(0.1 -0.1)">
       <use xlink:href="#DejaVuSans-30"/>
       <use x="63.623047" xlink:href="#DejaVuSans-2e"/>
       <use x="95.410156" xlink:href="#DejaVuSans-30"/>
       <use x="159.033203" xlink:href="#DejaVuSans-34"/>
      </g>
     </g>
    </g>
    <g id="ytick_6">
     <g id="line2d_173">
      <path clip-path="url(#paed2a79323)" d="M 53.925 164.213916 
L 1135.8875 164.213916 
" style="fill:none;stroke:#eeeeee;stroke-linecap:square;stroke-width:0.8;"/>
     </g>
     <g id="line2d_174">
      <g>
       <use style="stroke:#000000;stroke-width:0.8;" x="53.925" xlink:href="#madba436990" y="164.213916"/>
      </g>
     </g>
     <g id="text_88">
      <!-- 0.05 -->
      <g transform="translate(24.659375 168.013134)scale(0.1 -0.1)">
       <use xlink:href="#DejaVuSans-30"/>
       <use x="63.623047" xlink:href="#DejaVuSans-2e"/>
       <use x="95.410156" xlink:href="#DejaVuSans-30"/>
       <use x="159.033203" xlink:href="#DejaVuSans-35"/>
      </g>
     </g>
    </g>
    <g id="ytick_7">
     <g id="line2d_175">
      <path clip-path="url(#paed2a79323)" d="M 53.925 108.383972 
L 1135.8875 108.383972 
" style="fill:none;stroke:#eeeeee;stroke-linecap:square;stroke-width:0.8;"/>
     </g>
     <g id="line2d_176">
      <g>
       <use style="stroke:#000000;stroke-width:0.8;" x="53.925" xlink:href="#madba436990" y="108.383972"/>
      </g>
     </g>
     <g id="text_89">
      <!-- 0.06 -->
      <g transform="translate(24.659375 112.18319)scale(0.1 -0.1)">
       <use xlink:href="#DejaVuSans-30"/>
       <use x="63.623047" xlink:href="#DejaVuSans-2e"/>
       <use x="95.410156" xlink:href="#DejaVuSans-30"/>
       <use x="159.033203" xlink:href="#DejaVuSans-36"/>
      </g>
     </g>
    </g>
    <g id="ytick_8">
     <g id="line2d_177">
      <path clip-path="url(#paed2a79323)" d="M 53.925 52.554027 
L 1135.8875 52.554027 
" style="fill:none;stroke:#eeeeee;stroke-linecap:square;stroke-width:0.8;"/>
     </g>
     <g id="line2d_178">
      <g>
       <use style="stroke:#000000;stroke-width:0.8;" x="53.925" xlink:href="#madba436990" y="52.554027"/>
      </g>
     </g>
     <g id="text_90">
      <!-- 0.07 -->
      <g transform="translate(24.659375 56.353246)scale(0.1 -0.1)">
       <use xlink:href="#DejaVuSans-30"/>
       <use x="63.623047" xlink:href="#DejaVuSans-2e"/>
       <use x="95.410156" xlink:href="#DejaVuSans-30"/>
       <use x="159.033203" xlink:href="#DejaVuSans-37"/>
      </g>
     </g>
    </g>
    <g id="text_91">
     <!-- Mentions per book -->
     <defs>
      <path d="M 9.8125 72.90625 
L 24.515625 72.90625 
L 43.109375 23.296875 
L 61.8125 72.90625 
L 76.515625 72.90625 
L 76.515625 0 
L 66.890625 0 
L 66.890625 64.015625 
L 48.09375 14.015625 
L 38.1875 14.015625 
L 19.390625 64.015625 
L 19.390625 0 
L 9.8125 0 
z
" id="DejaVuSans-4d"/>
      <path d="M 56.203125 29.59375 
L 56.203125 25.203125 
L 14.890625 25.203125 
Q 15.484375 15.921875 20.484375 11.0625 
Q 25.484375 6.203125 34.421875 6.203125 
Q 39.59375 6.203125 44.453125 7.46875 
Q 49.3125 8.734375 54.109375 11.28125 
L 54.109375 2.78125 
Q 49.265625 0.734375 44.1875 -0.34375 
Q 39.109375 -1.421875 33.890625 -1.421875 
Q 20.796875 -1.421875 13.15625 6.1875 
Q 5.515625 13.8125 5.515625 26.8125 
Q 5.515625 40.234375 12.765625 48.109375 
Q 20.015625 56 32.328125 56 
Q 43.359375 56 49.78125 48.890625 
Q 56.203125 41.796875 56.203125 29.59375 
z
M 47.21875 32.234375 
Q 47.125 39.59375 43.09375 43.984375 
Q 39.0625 48.390625 32.421875 48.390625 
Q 24.90625 48.390625 20.390625 44.140625 
Q 15.875 39.890625 15.1875 32.171875 
z
" id="DejaVuSans-65"/>
      <path d="M 54.890625 33.015625 
L 54.890625 0 
L 45.90625 0 
L 45.90625 32.71875 
Q 45.90625 40.484375 42.875 44.328125 
Q 39.84375 48.1875 33.796875 48.1875 
Q 26.515625 48.1875 22.3125 43.546875 
Q 18.109375 38.921875 18.109375 30.90625 
L 18.109375 0 
L 9.078125 0 
L 9.078125 54.6875 
L 18.109375 54.6875 
L 18.109375 46.1875 
Q 21.34375 51.125 25.703125 53.5625 
Q 30.078125 56 35.796875 56 
Q 45.21875 56 50.046875 50.171875 
Q 54.890625 44.34375 54.890625 33.015625 
z
" id="DejaVuSans-6e"/>
      <path d="M 18.3125 70.21875 
L 18.3125 54.6875 
L 36.8125 54.6875 
L 36.8125 47.703125 
L 18.3125 47.703125 
L 18.3125 18.015625 
Q 18.3125 11.328125 20.140625 9.421875 
Q 21.96875 7.515625 27.59375 7.515625 
L 36.8125 7.515625 
L 36.8125 0 
L 27.59375 0 
Q 17.1875 0 13.234375 3.875 
Q 9.28125 7.765625 9.28125 18.015625 
L 9.28125 47.703125 
L 2.6875 47.703125 
L 2.6875 54.6875 
L 9.28125 54.6875 
L 9.28125 70.21875 
z
" id="DejaVuSans-74"/>
      <path d="M 9.421875 54.6875 
L 18.40625 54.6875 
L 18.40625 0 
L 9.421875 0 
z
M 9.421875 75.984375 
L 18.40625 75.984375 
L 18.40625 64.59375 
L 9.421875 64.59375 
z
" id="DejaVuSans-69"/>
      <path id="DejaVuSans-20"/>
      <path d="M 18.109375 8.203125 
L 18.109375 -20.796875 
L 9.078125 -20.796875 
L 9.078125 54.6875 
L 18.109375 54.6875 
L 18.109375 46.390625 
Q 20.953125 51.265625 25.265625 53.625 
Q 29.59375 56 35.59375 56 
Q 45.5625 56 51.78125 48.09375 
Q 58.015625 40.1875 58.015625 27.296875 
Q 58.015625 14.40625 51.78125 6.484375 
Q 45.5625 -1.421875 35.59375 -1.421875 
Q 29.59375 -1.421875 25.265625 0.953125 
Q 20.953125 3.328125 18.109375 8.203125 
z
M 48.6875 27.296875 
Q 48.6875 37.203125 44.609375 42.84375 
Q 40.53125 48.484375 33.40625 48.484375 
Q 26.265625 48.484375 22.1875 42.84375 
Q 18.109375 37.203125 18.109375 27.296875 
Q 18.109375 17.390625 22.1875 11.75 
Q 26.265625 6.109375 33.40625 6.109375 
Q 40.53125 6.109375 44.609375 11.75 
Q 48.6875 17.390625 48.6875 27.296875 
z
" id="DejaVuSans-70"/>
      <path d="M 41.109375 46.296875 
Q 39.59375 47.171875 37.8125 47.578125 
Q 36.03125 48 33.890625 48 
Q 26.265625 48 22.1875 43.046875 
Q 18.109375 38.09375 18.109375 28.8125 
L 18.109375 0 
L 9.078125 0 
L 9.078125 54.6875 
L 18.109375 54.6875 
L 18.109375 46.1875 
Q 20.953125 51.171875 25.484375 53.578125 
Q 30.03125 56 36.53125 56 
Q 37.453125 56 38.578125 55.875 
Q 39.703125 55.765625 41.0625 55.515625 
z
" id="DejaVuSans-72"/>
      <path d="M 48.6875 27.296875 
Q 48.6875 37.203125 44.609375 42.84375 
Q 40.53125 48.484375 33.40625 48.484375 
Q 26.265625 48.484375 22.1875 42.84375 
Q 18.109375 37.203125 18.109375 27.296875 
Q 18.109375 17.390625 22.1875 11.75 
Q 26.265625 6.109375 33.40625 6.109375 
Q 40.53125 6.109375 44.609375 11.75 
Q 48.6875 17.390625 48.6875 27.296875 
z
M 18.109375 46.390625 
Q 20.953125 51.265625 25.265625 53.625 
Q 29.59375 56 35.59375 56 
Q 45.5625 56 51.78125 48.09375 
Q 58.015625 40.1875 58.015625 27.296875 
Q 58.015625 14.40625 51.78125 6.484375 
Q 45.5625 -1.421875 35.59375 -1.421875 
Q 29.59375 -1.421875 25.265625 0.953125 
Q 20.953125 3.328125 18.109375 8.203125 
L 18.109375 0 
L 9.078125 0 
L 9.078125 75.984375 
L 18.109375 75.984375 
z
" id="DejaVuSans-62"/>
     </defs>
     <g transform="translate(18.579688 291.414062)rotate(-90)scale(0.1 -0.1)">
      <use xlink:href="#DejaVuSans-4d"/>
      <use x="86.279297" xlink:href="#DejaVuSans-65"/>
      <use x="147.802734" xlink:href="#DejaVuSans-6e"/>
      <use x="211.181641" xlink:href="#DejaVuSans-74"/>
      <use x="250.390625" xlink:href="#DejaVuSans-69"/>
      <use x="278.173828" xlink:href="#DejaVuSans-6f"/>
      <use x="339.355469" xlink:href="#DejaVuSans-6e"/>
      <use x="402.734375" xlink:href="#DejaVuSans-73"/>
      <use x="454.833984" xlink:href="#DejaVuSans-20"/>
      <use x="486.621094" xlink:href="#DejaVuSans-70"/>
      <use x="550.097656" xlink:href="#DejaVuSans-65"/>
      <use x="611.621094" xlink:href="#DejaVuSans-72"/>
      <use x="652.734375" xlink:href="#DejaVuSans-20"/>
      <use x="684.521484" xlink:href="#DejaVuSans-62"/>
      <use x="747.998047" xlink:href="#DejaVuSans-6f"/>
      <use x="809.179688" xlink:href="#DejaVuSans-6f"/>
      <use x="870.361328" xlink:href="#DejaVuSans-6b"/>
     </g>
    </g>
   </g>
   <g id="line2d_179">
    <path clip-path="url(#paed2a79323)" d="M 53.925 166.306427 
L 67.449531 269.599166 
L 80.974063 192.547294 
L 94.498594 305.331883 
L 108.023125 268.78435 
L 121.547656 344.549576 
L 135.072188 179.243471 
L 148.596719 261.309471 
L 162.12125 174.537121 
L 175.645781 176.848985 
L 189.170313 182.382482 
L 202.694844 155.377436 
L 216.219375 259.372059 
L 229.743906 217.286403 
L 243.268438 355.649074 
L 256.792969 362.442958 
L 270.3175 267.131502 
L 283.842031 120.965801 
L 297.366563 238.008621 
L 310.891094 122.523205 
L 324.415625 185.271438 
L 337.940156 292.301781 
L 351.464688 285.317405 
L 364.989219 324.846498 
L 378.51375 227.627318 
L 392.038281 325.66609 
L 405.562813 200.541125 
L 419.087344 299.988804 
L 432.611875 339.111161 
L 446.136406 333.555926 
L 459.660938 343.518729 
L 473.185469 240.652795 
L 486.71 291.132337 
L 500.234531 291.651832 
L 513.759063 220.346256 
L 527.283594 329.354468 
L 540.808125 403.94267 
L 554.332656 305.67229 
L 567.857188 271.145637 
L 581.381719 151.964308 
L 594.90625 56.554487 
L 608.430781 102.263088 
L 621.955313 93.622988 
L 635.479844 204.516495 
L 649.004375 285.829266 
L 662.528906 265.910488 
L 676.053438 334.848838 
L 689.577969 316.7241 
L 703.1025 242.456937 
L 716.627031 341.204544 
L 730.151563 271.535857 
L 743.676094 364.473498 
L 757.200625 279.63946 
L 770.725156 331.504888 
L 784.249688 286.237446 
L 797.774219 300.209933 
L 811.29875 365.642136 
L 824.823281 228.291006 
L 838.347813 198.83526 
L 851.872344 294.724011 
L 865.396875 346.299342 
L 878.921406 46.636364 
L 892.445938 293.985859 
L 905.970469 310.885803 
L 919.495 351.688851 
L 933.019531 256.286554 
L 946.544063 288.846599 
L 960.068594 337.616826 
L 973.593125 186.05693 
L 987.117656 266.734508 
L 1000.642188 334.135617 
L 1014.166719 280.164365 
L 1027.69125 84.788292 
L 1041.215781 333.92567 
L 1054.740313 340.95368 
L 1068.264844 272.981266 
L 1081.789375 327.693863 
L 1095.313906 219.418898 
L 1108.838438 416.06293 
L 1122.362969 164.201841 
L 1135.8875 179.069762 
" style="fill:none;opacity:0.9;stroke:#1f77b4;stroke-linecap:square;stroke-width:1.5;"/>
   </g>
   <g id="line2d_180">
    <path clip-path="url(#paed2a79323)" d="M 53.925 372.349499 
L 67.449531 426.465127 
L 80.974063 407.890065 
L 94.498594 415.723371 
L 108.023125 415.021565 
L 121.547656 411.411784 
L 135.072188 386.010148 
L 148.596719 194.122814 
L 162.12125 411.736988 
L 175.645781 410.320153 
L 189.170313 418.562463 
L 202.694844 414.185463 
L 216.219375 423.102659 
L 229.743906 432.016957 
L 243.268438 441.114545 
L 256.792969 440.701772 
L 270.3175 364.158183 
L 283.842031 433.2021 
L 297.366563 437.532568 
L 310.891094 371.777274 
L 324.415625 435.360778 
L 337.940156 397.205847 
L 351.464688 428.749257 
L 364.989219 415.892777 
L 378.51375 330.592379 
L 392.038281 413.656323 
L 405.562813 438.55527 
L 419.087344 356.045129 
L 432.611875 429.646205 
L 446.136406 432.779761 
L 459.660938 435.043227 
L 473.185469 434.917351 
L 486.71 407.961009 
L 500.234531 374.009668 
L 513.759063 443.363636 
L 527.283594 384.631641 
L 540.808125 433.508395 
L 554.332656 428.64192 
L 567.857188 427.707455 
L 581.381719 420.984545 
L 594.90625 410.271599 
L 608.430781 409.382623 
L 621.955313 418.528252 
L 635.479844 430.247753 
L 649.004375 432.111181 
L 662.528906 397.968645 
L 676.053438 443.363636 
L 689.577969 434.317955 
L 703.1025 430.461371 
L 716.627031 440.809659 
L 730.151563 443.363636 
L 743.676094 437.295164 
L 757.200625 443.363636 
L 770.725156 393.648637 
L 784.249688 440.020526 
L 797.774219 424.691414 
L 811.29875 443.363636 
L 824.823281 440.129461 
L 838.347813 436.100417 
L 851.872344 438.859405 
L 865.396875 439.768662 
L 878.921406 443.363636 
L 892.445938 387.34697 
L 905.970469 443.363636 
L 919.495 443.363636 
L 933.019531 398.223146 
L 946.544063 422.982555 
L 960.068594 409.480937 
L 973.593125 350.380528 
L 987.117656 319.723247 
L 1000.642188 365.049208 
L 1014.166719 388.612913 
L 1027.69125 388.274142 
L 1041.215781 406.884314 
L 1054.740313 416.93526 
L 1068.264844 443.363636 
L 1081.789375 250.58068 
L 1095.313906 438.155619 
L 1108.838438 443.363636 
L 1122.362969 436.360443 
L 1135.8875 434.815969 
" style="fill:none;opacity:0.9;stroke:#ff7f0e;stroke-linecap:square;stroke-width:1.5;"/>
   </g>
   <g id="patch_3">
    <path d="M 53.925 463.2 
L 53.925 26.8 
" style="fill:none;stroke:#000000;stroke-linecap:square;stroke-linejoin:miter;stroke-width:0.8;"/>
   </g>
   <g id="patch_4">
    <path d="M 1135.8875 463.2 
L 1135.8875 26.8 
" style="fill:none;stroke:#000000;stroke-linecap:square;stroke-linejoin:miter;stroke-width:0.8;"/>
   </g>
   <g id="patch_5">
    <path d="M 53.925 463.2 
L 1135.8875 463.2 
" style="fill:none;stroke:#000000;stroke-linecap:square;stroke-linejoin:miter;stroke-width:0.8;"/>
   </g>
   <g id="patch_6">
    <path d="M 53.925 26.8 
L 1135.8875 26.8 
" style="fill:none;stroke:#000000;stroke-linecap:square;stroke-linejoin:miter;stroke-width:0.8;"/>
   </g>
   <g id="text_92">
    <!-- Man and Woman -->
    <defs>
     <path d="M 34.28125 27.484375 
Q 23.390625 27.484375 19.1875 25 
Q 14.984375 22.515625 14.984375 16.5 
Q 14.984375 11.71875 18.140625 8.90625 
Q 21.296875 6.109375 26.703125 6.109375 
Q 34.1875 6.109375 38.703125 11.40625 
Q 43.21875 16.703125 43.21875 25.484375 
L 43.21875 27.484375 
z
M 52.203125 31.203125 
L 52.203125 0 
L 43.21875 0 
L 43.21875 8.296875 
Q 40.140625 3.328125 35.546875 0.953125 
Q 30.953125 -1.421875 24.3125 -1.421875 
Q 15.921875 -1.421875 10.953125 3.296875 
Q 6 8.015625 6 15.921875 
Q 6 25.140625 12.171875 29.828125 
Q 18.359375 34.515625 30.609375 34.515625 
L 43.21875 34.515625 
L 43.21875 35.40625 
Q 43.21875 41.609375 39.140625 45 
Q 35.0625 48.390625 27.6875 48.390625 
Q 23 48.390625 18.546875 47.265625 
Q 14.109375 46.140625 10.015625 43.890625 
L 10.015625 52.203125 
Q 14.9375 54.109375 19.578125 55.046875 
Q 24.21875 56 28.609375 56 
Q 40.484375 56 46.34375 49.84375 
Q 52.203125 43.703125 52.203125 31.203125 
z
" id="DejaVuSans-61"/>
     <path d="M 45.40625 46.390625 
L 45.40625 75.984375 
L 54.390625 75.984375 
L 54.390625 0 
L 45.40625 0 
L 45.40625 8.203125 
Q 42.578125 3.328125 38.25 0.953125 
Q 33.9375 -1.421875 27.875 -1.421875 
Q 17.96875 -1.421875 11.734375 6.484375 
Q 5.515625 14.40625 5.515625 27.296875 
Q 5.515625 40.1875 11.734375 48.09375 
Q 17.96875 56 27.875 56 
Q 33.9375 56 38.25 53.625 
Q 42.578125 51.265625 45.40625 46.390625 
z
M 14.796875 27.296875 
Q 14.796875 17.390625 18.875 11.75 
Q 22.953125 6.109375 30.078125 6.109375 
Q 37.203125 6.109375 41.296875 11.75 
Q 45.40625 17.390625 45.40625 27.296875 
Q 45.40625 37.203125 41.296875 42.84375 
Q 37.203125 48.484375 30.078125 48.484375 
Q 22.953125 48.484375 18.875 42.84375 
Q 14.796875 37.203125 14.796875 27.296875 
z
" id="DejaVuSans-64"/>
     <path d="M 3.328125 72.90625 
L 13.28125 72.90625 
L 28.609375 11.28125 
L 43.890625 72.90625 
L 54.984375 72.90625 
L 70.3125 11.28125 
L 85.59375 72.90625 
L 95.609375 72.90625 
L 77.296875 0 
L 64.890625 0 
L 49.515625 63.28125 
L 33.984375 0 
L 21.578125 0 
z
" id="DejaVuSans-57"/>
     <path d="M 52 44.1875 
Q 55.375 50.25 60.0625 53.125 
Q 64.75 56 71.09375 56 
Q 79.640625 56 84.28125 50.015625 
Q 88.921875 44.046875 88.921875 33.015625 
L 88.921875 0 
L 79.890625 0 
L 79.890625 32.71875 
Q 79.890625 40.578125 77.09375 44.375 
Q 74.3125 48.1875 68.609375 48.1875 
Q 61.625 48.1875 57.5625 43.546875 
Q 53.515625 38.921875 53.515625 30.90625 
L 53.515625 0 
L 44.484375 0 
L 44.484375 32.71875 
Q 44.484375 40.625 41.703125 44.40625 
Q 38.921875 48.1875 33.109375 48.1875 
Q 26.21875 48.1875 22.15625 43.53125 
Q 18.109375 38.875 18.109375 30.90625 
L 18.109375 0 
L 9.078125 0 
L 9.078125 54.6875 
L 18.109375 54.6875 
L 18.109375 46.1875 
Q 21.1875 51.21875 25.484375 53.609375 
Q 29.78125 56 35.6875 56 
Q 41.65625 56 45.828125 52.96875 
Q 50 49.953125 52 44.1875 
z
" id="DejaVuSans-6d"/>
    </defs>
    <g transform="translate(544.225 20.8)scale(0.12 -0.12)">
     <use xlink:href="#DejaVuSans-4d"/>
     <use x="86.279297" xlink:href="#DejaVuSans-61"/>
     <use x="147.558594" xlink:href="#DejaVuSans-6e"/>
     <use x="210.9375" xlink:href="#DejaVuSans-20"/>
     <use x="242.724609" xlink:href="#DejaVuSans-61"/>
     <use x="304.003906" xlink:href="#DejaVuSans-6e"/>
     <use x="367.382812" xlink:href="#DejaVuSans-64"/>
     <use x="430.859375" xlink:href="#DejaVuSans-20"/>
     <use x="462.646484" xlink:href="#DejaVuSans-57"/>
     <use x="561.445312" xlink:href="#DejaVuSans-6f"/>
     <use x="622.626953" xlink:href="#DejaVuSans-6d"/>
     <use x="720.039062" xlink:href="#DejaVuSans-61"/>
     <use x="781.318359" xlink:href="#DejaVuSans-6e"/>
    </g>
   </g>
   <g id="legend_1">
    <g id="patch_7">
     <path d="M 60.925 64.15625 
L 489.970313 64.15625 
Q 491.970313 64.15625 491.970313 62.15625 
L 491.970313 33.8 
Q 491.970313 31.8 489.970313 31.8 
L 60.925 31.8 
Q 58.925 31.8 58.925 33.8 
L 58.925 62.15625 
Q 58.925 64.15625 60.925 64.15625 
z
" style="fill:#ffffff;opacity:0.8;stroke:#cccccc;stroke-linejoin:miter;"/>
    </g>
    <g id="line2d_181">
     <path d="M 62.925 39.898437 
L 82.925 39.898437 
" style="fill:none;opacity:0.9;stroke:#1f77b4;stroke-linecap:square;stroke-width:1.5;"/>
    </g>
    <g id="line2d_182"/>
    <g id="text_93">
     <!-- man OR men OR boy OR husband OR he OR him OR his -->
     <defs>
      <path d="M 39.40625 66.21875 
Q 28.65625 66.21875 22.328125 58.203125 
Q 16.015625 50.203125 16.015625 36.375 
Q 16.015625 22.609375 22.328125 14.59375 
Q 28.65625 6.59375 39.40625 6.59375 
Q 50.140625 6.59375 56.421875 14.59375 
Q 62.703125 22.609375 62.703125 36.375 
Q 62.703125 50.203125 56.421875 58.203125 
Q 50.140625 66.21875 39.40625 66.21875 
z
M 39.40625 74.21875 
Q 54.734375 74.21875 63.90625 63.9375 
Q 73.09375 53.65625 73.09375 36.375 
Q 73.09375 19.140625 63.90625 8.859375 
Q 54.734375 -1.421875 39.40625 -1.421875 
Q 24.03125 -1.421875 14.8125 8.828125 
Q 5.609375 19.09375 5.609375 36.375 
Q 5.609375 53.65625 14.8125 63.9375 
Q 24.03125 74.21875 39.40625 74.21875 
z
" id="DejaVuSans-4f"/>
      <path d="M 44.390625 34.1875 
Q 47.5625 33.109375 50.5625 29.59375 
Q 53.5625 26.078125 56.59375 19.921875 
L 66.609375 0 
L 56 0 
L 46.6875 18.703125 
Q 43.0625 26.03125 39.671875 28.421875 
Q 36.28125 30.8125 30.421875 30.8125 
L 19.671875 30.8125 
L 19.671875 0 
L 9.8125 0 
L 9.8125 72.90625 
L 32.078125 72.90625 
Q 44.578125 72.90625 50.734375 67.671875 
Q 56.890625 62.453125 56.890625 51.90625 
Q 56.890625 45.015625 53.6875 40.46875 
Q 50.484375 35.9375 44.390625 34.1875 
z
M 19.671875 64.796875 
L 19.671875 38.921875 
L 32.078125 38.921875 
Q 39.203125 38.921875 42.84375 42.21875 
Q 46.484375 45.515625 46.484375 51.90625 
Q 46.484375 58.296875 42.84375 61.546875 
Q 39.203125 64.796875 32.078125 64.796875 
z
" id="DejaVuSans-52"/>
      <path d="M 32.171875 -5.078125 
Q 28.375 -14.84375 24.75 -17.8125 
Q 21.140625 -20.796875 15.09375 -20.796875 
L 7.90625 -20.796875 
L 7.90625 -13.28125 
L 13.1875 -13.28125 
Q 16.890625 -13.28125 18.9375 -11.515625 
Q 21 -9.765625 23.484375 -3.21875 
L 25.09375 0.875 
L 2.984375 54.6875 
L 12.5 54.6875 
L 29.59375 11.921875 
L 46.6875 54.6875 
L 56.203125 54.6875 
z
" id="DejaVuSans-79"/>
      <path d="M 54.890625 33.015625 
L 54.890625 0 
L 45.90625 0 
L 45.90625 32.71875 
Q 45.90625 40.484375 42.875 44.328125 
Q 39.84375 48.1875 33.796875 48.1875 
Q 26.515625 48.1875 22.3125 43.546875 
Q 18.109375 38.921875 18.109375 30.90625 
L 18.109375 0 
L 9.078125 0 
L 9.078125 75.984375 
L 18.109375 75.984375 
L 18.109375 46.1875 
Q 21.34375 51.125 25.703125 53.5625 
Q 30.078125 56 35.796875 56 
Q 45.21875 56 50.046875 50.171875 
Q 54.890625 44.34375 54.890625 33.015625 
z
" id="DejaVuSans-68"/>
      <path d="M 8.5 21.578125 
L 8.5 54.6875 
L 17.484375 54.6875 
L 17.484375 21.921875 
Q 17.484375 14.15625 20.5 10.265625 
Q 23.53125 6.390625 29.59375 6.390625 
Q 36.859375 6.390625 41.078125 11.03125 
Q 45.3125 15.671875 45.3125 23.6875 
L 45.3125 54.6875 
L 54.296875 54.6875 
L 54.296875 0 
L 45.3125 0 
L 45.3125 8.40625 
Q 42.046875 3.421875 37.71875 1 
Q 33.40625 -1.421875 27.6875 -1.421875 
Q 18.265625 -1.421875 13.375 4.4375 
Q 8.5 10.296875 8.5 21.578125 
z
M 31.109375 56 
z
" id="DejaVuSans-75"/>
     </defs>
     <g transform="translate(90.925 43.398437)scale(0.1 -0.1)">
      <use xlink:href="#DejaVuSans-6d"/>
      <use x="97.412109" xlink:href="#DejaVuSans-61"/>
      <use x="158.691406" xlink:href="#DejaVuSans-6e"/>
      <use x="222.070312" xlink:href="#DejaVuSans-20"/>
      <use x="253.857422" xlink:href="#DejaVuSans-4f"/>
      <use x="332.568359" xlink:href="#DejaVuSans-52"/>
      <use x="402.050781" xlink:href="#DejaVuSans-20"/>
      <use x="433.837891" xlink:href="#DejaVuSans-6d"/>
      <use x="531.25" xlink:href="#DejaVuSans-65"/>
      <use x="592.773438" xlink:href="#DejaVuSans-6e"/>
      <use x="656.152344" xlink:href="#DejaVuSans-20"/>
      <use x="687.939453" xlink:href="#DejaVuSans-4f"/>
      <use x="766.650391" xlink:href="#DejaVuSans-52"/>
      <use x="836.132812" xlink:href="#DejaVuSans-20"/>
      <use x="867.919922" xlink:href="#DejaVuSans-62"/>
      <use x="931.396484" xlink:href="#DejaVuSans-6f"/>
      <use x="992.578125" xlink:href="#DejaVuSans-79"/>
      <use x="1051.757812" xlink:href="#DejaVuSans-20"/>
      <use x="1083.544922" xlink:href="#DejaVuSans-4f"/>
      <use x="1162.255859" xlink:href="#DejaVuSans-52"/>
      <use x="1231.738281" xlink:href="#DejaVuSans-20"/>
      <use x="1263.525391" xlink:href="#DejaVuSans-68"/>
      <use x="1326.904297" xlink:href="#DejaVuSans-75"/>
      <use x="1390.283203" xlink:href="#DejaVuSans-73"/>
      <use x="1442.382812" xlink:href="#DejaVuSans-62"/>
      <use x="1505.859375" xlink:href="#DejaVuSans-61"/>
      <use x="1567.138672" xlink:href="#DejaVuSans-6e"/>
      <use x="1630.517578" xlink:href="#DejaVuSans-64"/>
      <use x="1693.994141" xlink:href="#DejaVuSans-20"/>
      <use x="1725.78125" xlink:href="#DejaVuSans-4f"/>
      <use x="1804.492188" xlink:href="#DejaVuSans-52"/>
      <use x="1873.974609" xlink:href="#DejaVuSans-20"/>
      <use x="1905.761719" xlink:href="#DejaVuSans-68"/>
      <use x="1969.140625" xlink:href="#DejaVuSans-65"/>
      <use x="2030.664062" xlink:href="#DejaVuSans-20"/>
      <use x="2062.451172" xlink:href="#DejaVuSans-4f"/>
      <use x="2141.162109" xlink:href="#DejaVuSans-52"/>
      <use x="2210.644531" xlink:href="#DejaVuSans-20"/>
      <use x="2242.431641" xlink:href="#DejaVuSans-68"/>
      <use x="2305.810547" xlink:href="#DejaVuSans-69"/>
      <use x="2333.59375" xlink:href="#DejaVuSans-6d"/>
      <use x="2431.005859" xlink:href="#DejaVuSans-20"/>
      <use x="2462.792969" xlink:href="#DejaVuSans-4f"/>
      <use x="2541.503906" xlink:href="#DejaVuSans-52"/>
      <use x="2610.986328" xlink:href="#DejaVuSans-20"/>
      <use x="2642.773438" xlink:href="#DejaVuSans-68"/>
      <use x="2706.152344" xlink:href="#DejaVuSans-69"/>
      <use x="2733.935547" xlink:href="#DejaVuSans-73"/>
     </g>
    </g>
    <g id="line2d_183">
     <path d="M 62.925 54.576562 
L 82.925 54.576562 
" style="fill:none;opacity:0.9;stroke:#ff7f0e;stroke-linecap:square;stroke-width:1.5;"/>
    </g>
    <g id="line2d_184"/>
    <g id="text_94">
     <!-- woman OR women OR lady OR maid OR maiden OR girl OR wife OR she OR her -->
     <defs>
      <path d="M 4.203125 54.6875 
L 13.1875 54.6875 
L 24.421875 12.015625 
L 35.59375 54.6875 
L 46.1875 54.6875 
L 57.421875 12.015625 
L 68.609375 54.6875 
L 77.59375 54.6875 
L 63.28125 0 
L 52.6875 0 
L 40.921875 44.828125 
L 29.109375 0 
L 18.5 0 
z
" id="DejaVuSans-77"/>
      <path d="M 9.421875 75.984375 
L 18.40625 75.984375 
L 18.40625 0 
L 9.421875 0 
z
" id="DejaVuSans-6c"/>
      <path d="M 45.40625 27.984375 
Q 45.40625 37.75 41.375 43.109375 
Q 37.359375 48.484375 30.078125 48.484375 
Q 22.859375 48.484375 18.828125 43.109375 
Q 14.796875 37.75 14.796875 27.984375 
Q 14.796875 18.265625 18.828125 12.890625 
Q 22.859375 7.515625 30.078125 7.515625 
Q 37.359375 7.515625 41.375 12.890625 
Q 45.40625 18.265625 45.40625 27.984375 
z
M 54.390625 6.78125 
Q 54.390625 -7.171875 48.1875 -13.984375 
Q 42 -20.796875 29.203125 -20.796875 
Q 24.46875 -20.796875 20.265625 -20.09375 
Q 16.0625 -19.390625 12.109375 -17.921875 
L 12.109375 -9.1875 
Q 16.0625 -11.328125 19.921875 -12.34375 
Q 23.78125 -13.375 27.78125 -13.375 
Q 36.625 -13.375 41.015625 -8.765625 
Q 45.40625 -4.15625 45.40625 5.171875 
L 45.40625 9.625 
Q 42.625 4.78125 38.28125 2.390625 
Q 33.9375 0 27.875 0 
Q 17.828125 0 11.671875 7.65625 
Q 5.515625 15.328125 5.515625 27.984375 
Q 5.515625 40.671875 11.671875 48.328125 
Q 17.828125 56 27.875 56 
Q 33.9375 56 38.28125 53.609375 
Q 42.625 51.21875 45.40625 46.390625 
L 45.40625 54.6875 
L 54.390625 54.6875 
z
" id="DejaVuSans-67"/>
      <path d="M 37.109375 75.984375 
L 37.109375 68.5 
L 28.515625 68.5 
Q 23.6875 68.5 21.796875 66.546875 
Q 19.921875 64.59375 19.921875 59.515625 
L 19.921875 54.6875 
L 34.71875 54.6875 
L 34.71875 47.703125 
L 19.921875 47.703125 
L 19.921875 0 
L 10.890625 0 
L 10.890625 47.703125 
L 2.296875 47.703125 
L 2.296875 54.6875 
L 10.890625 54.6875 
L 10.890625 58.5 
Q 10.890625 67.625 15.140625 71.796875 
Q 19.390625 75.984375 28.609375 75.984375 
z
" id="DejaVuSans-66"/>
     </defs>
     <g transform="translate(90.925 58.076562)scale(0.1 -0.1)">
      <use xlink:href="#DejaVuSans-77"/>
      <use x="81.787109" xlink:href="#DejaVuSans-6f"/>
      <use x="142.96875" xlink:href="#DejaVuSans-6d"/>
      <use x="240.380859" xlink:href="#DejaVuSans-61"/>
      <use x="301.660156" xlink:href="#DejaVuSans-6e"/>
      <use x="365.039062" xlink:href="#DejaVuSans-20"/>
      <use x="396.826172" xlink:href="#DejaVuSans-4f"/>
      <use x="475.537109" xlink:href="#DejaVuSans-52"/>
      <use x="545.019531" xlink:href="#DejaVuSans-20"/>
      <use x="576.806641" xlink:href="#DejaVuSans-77"/>
      <use x="658.59375" xlink:href="#DejaVuSans-6f"/>
      <use x="719.775391" xlink:href="#DejaVuSans-6d"/>
      <use x="817.1875" xlink:href="#DejaVuSans-65"/>
      <use x="878.710938" xlink:href="#DejaVuSans-6e"/>
      <use x="942.089844" xlink:href="#DejaVuSans-20"/>
      <use x="973.876953" xlink:href="#DejaVuSans-4f"/>
      <use x="1052.587891" xlink:href="#DejaVuSans-52"/>
      <use x="1122.070312" xlink:href="#DejaVuSans-20"/>
      <use x="1153.857422" xlink:href="#DejaVuSans-6c"/>
      <use x="1181.640625" xlink:href="#DejaVuSans-61"/>
      <use x="1242.919922" xlink:href="#DejaVuSans-64"/>
      <use x="1306.396484" xlink:href="#DejaVuSans-79"/>
      <use x="1365.576172" xlink:href="#DejaVuSans-20"/>
      <use x="1397.363281" xlink:href="#DejaVuSans-4f"/>
      <use x="1476.074219" xlink:href="#DejaVuSans-52"/>
      <use x="1545.556641" xlink:href="#DejaVuSans-20"/>
      <use x="1577.34375" xlink:href="#DejaVuSans-6d"/>
      <use x="1674.755859" xlink:href="#DejaVuSans-61"/>
      <use x="1736.035156" xlink:href="#DejaVuSans-69"/>
      <use x="1763.818359" xlink:href="#DejaVuSans-64"/>
      <use x="1827.294922" xlink:href="#DejaVuSans-20"/>
      <use x="1859.082031" xlink:href="#DejaVuSans-4f"/>
      <use x="1937.792969" xlink:href="#DejaVuSans-52"/>
      <use x="2007.275391" xlink:href="#DejaVuSans-20"/>
      <use x="2039.0625" xlink:href="#DejaVuSans-6d"/>
      <use x="2136.474609" xlink:href="#DejaVuSans-61"/>
      <use x="2197.753906" xlink:href="#DejaVuSans-69"/>
      <use x="2225.537109" xlink:href="#DejaVuSans-64"/>
      <use x="2289.013672" xlink:href="#DejaVuSans-65"/>
      <use x="2350.537109" xlink:href="#DejaVuSans-6e"/>
      <use x="2413.916016" xlink:href="#DejaVuSans-20"/>
      <use x="2445.703125" xlink:href="#DejaVuSans-4f"/>
      <use x="2524.414062" xlink:href="#DejaVuSans-52"/>
      <use x="2593.896484" xlink:href="#DejaVuSans-20"/>
      <use x="2625.683594" xlink:href="#DejaVuSans-67"/>
      <use x="2689.160156" xlink:href="#DejaVuSans-69"/>
      <use x="2716.943359" xlink:href="#DejaVuSans-72"/>
      <use x="2758.056641" xlink:href="#DejaVuSans-6c"/>
      <use x="2785.839844" xlink:href="#DejaVuSans-20"/>
      <use x="2817.626953" xlink:href="#DejaVuSans-4f"/>
      <use x="2896.337891" xlink:href="#DejaVuSans-52"/>
      <use x="2965.820312" xlink:href="#DejaVuSans-20"/>
      <use x="2997.607422" xlink:href="#DejaVuSans-77"/>
      <use x="3079.394531" xlink:href="#DejaVuSans-69"/>
      <use x="3107.177734" xlink:href="#DejaVuSans-66"/>
      <use x="3142.382812" xlink:href="#DejaVuSans-65"/>
      <use x="3203.90625" xlink:href="#DejaVuSans-20"/>
      <use x="3235.693359" xlink:href="#DejaVuSans-4f"/>
      <use x="3314.404297" xlink:href="#DejaVuSans-52"/>
      <use x="3383.886719" xlink:href="#DejaVuSans-20"/>
      <use x="3415.673828" xlink:href="#DejaVuSans-73"/>
      <use x="3467.773438" xlink:href="#DejaVuSans-68"/>
      <use x="3531.152344" xlink:href="#DejaVuSans-65"/>
      <use x="3592.675781" xlink:href="#DejaVuSans-20"/>
      <use x="3624.462891" xlink:href="#DejaVuSans-4f"/>
      <use x="3703.173828" xlink:href="#DejaVuSans-52"/>
      <use x="3772.65625" xlink:href="#DejaVuSans-20"/>
      <use x="3804.443359" xlink:href="#DejaVuSans-68"/>
      <use x="3867.822266" xlink:href="#DejaVuSans-65"/>
      <use x="3929.345703" xlink:href="#DejaVuSans-72"/>
     </g>
    </g>
   </g>
  </g>
 </g>
 <defs>
  <clipPath id="paed2a79323">
   <rect height="436.4" width="1081.9625" x="53.925" y="26.8"/>
  </clipPath>
 </defs>
</svg>
